<?xml version="1.0" encoding="utf-8"?>
<!-- Generator: Adobe Illustrator 23.0.1, SVG Export Plug-In . SVG Version: 6.00 Build 0)  -->
<svg version="1.1" id="Layer_1" xmlns="http://www.w3.org/2000/svg" xmlns:xlink="http://www.w3.org/1999/xlink" x="0px" y="0px"
	 viewBox="0 0 580 830" style="enable-background:new 0 0 580 830;" xml:space="preserve">
<metadata><?xpacket begin="﻿" id="W5M0MpCehiHzreSzNTczkc9d"?>
<x:xmpmeta xmlns:x="adobe:ns:meta/" x:xmptk="XMP Core 5.6.0">
   <rdf:RDF xmlns:rdf="http://www.w3.org/1999/02/22-rdf-syntax-ns#">
      <rdf:Description rdf:about=""
            xmlns:ExtensisFontSense="http://www.extensis.com/meta/FontSense/">
         <ExtensisFontSense:slug>
            <rdf:Bag>
               <rdf:li>
                  <rdf:Description>
                     <ExtensisFontSense:Checksum>2786500452</ExtensisFontSense:Checksum>
                     <ExtensisFontSense:Family>Helvetica</ExtensisFontSense:Family>
                     <ExtensisFontSense:FontKind>PostScript</ExtensisFontSense:FontKind>
                     <ExtensisFontSense:FontSense_1.2_Checksum>2786500452</ExtensisFontSense:FontSense_1.2_Checksum>
                     <ExtensisFontSense:Foundry>Adobe Systems</ExtensisFontSense:Foundry>
                     <ExtensisFontSense:OutlineFileSize>31268</ExtensisFontSense:OutlineFileSize>
                     <ExtensisFontSense:PostScriptName>Helvetica-Condensed-Bold</ExtensisFontSense:PostScriptName>
                     <ExtensisFontSense:Version>001.005</ExtensisFontSense:Version>
                  </rdf:Description>
               </rdf:li>
            </rdf:Bag>
         </ExtensisFontSense:slug>
      </rdf:Description>
   </rdf:RDF>
</x:xmpmeta>
                                                                                                    
                                                                                                    
                                                                                                    
                                                                                                    
                                                                                                    
                                                                                                    
                                                                                                    
                                                                                                    
                                                                                                    
                                                                                                    
                                                                                                    
                                                                                                    
                                                                                                    
                                                                                                    
                                                                                                    
                                                                                                    
                                                                                                    
                                                                                                    
                                                                                                    
                                                                                                    
                           
<?xpacket end="w"?></metadata>
<style type="text/css">
	.st0{fill:none;stroke:#000000;stroke-width:0.5;stroke-miterlimit:10;}
	
		.st1{fill:none;stroke:#000000;stroke-width:0.5;stroke-linecap:round;stroke-linejoin:round;stroke-miterlimit:10;stroke-dasharray:3.8036,1.9018;}
	.st2{fill:none;stroke:#000000;stroke-width:0.5;stroke-linecap:round;stroke-linejoin:round;stroke-miterlimit:10;}
	.st3{fill:#FFFFFF;}
</style>
<g>
	<g>
		<polygon points="112.173,194.46 112.173,93.716 107.973,93.716 99.578,93.716 99.578,194.46 107.973,194.46 		"/>
		<path d="M305.259,263.718v-12.591h-4.197v8.393h-26.237v17.156l0.152-0.063c6.32,15.02,9.806,31.082,10.286,47.368
			c-8.317,13.946-8.317,31.33,0,45.274c-0.102,3.508-0.346,7.011-0.73,10.501l4.127,0.894c0.469-4.164,0.746-8.35,0.832-12.535
			c-8.36-13.113-8.36-29.879,0-42.994c-0.343-17.078-3.896-33.94-10.466-49.709v-11.695H305.259z"/>
		<polygon points="107.973,249.027 220.258,249.027 220.258,450.55 230.394,460.681 233.363,457.714 224.455,448.811 
			224.455,244.83 112.173,244.83 112.173,225.94 107.973,225.94 99.578,225.94 99.578,492.486 107.973,492.486 		"/>
		<polygon points="112.173,62.236 112.173,43.346 133.377,43.346 163.384,32.359 191.494,27.592 219.639,27.592 247.751,32.359 
			277.758,43.346 292.667,43.346 292.667,49.643 301.062,49.643 301.062,219.644 305.259,219.644 305.259,39.149 458.47,39.149 
			458.47,83.225 466.868,83.225 466.868,30.751 279.986,30.751 250.995,20.136 220.701,15.001 190.434,15.001 160.139,20.136 
			131.146,30.751 99.578,30.751 99.578,62.236 107.973,62.236 		"/>
		<path d="M466.868,495.633V114.703h-8.398v384.081H321.002v-61.668c6.371-14.912,10.728-30.609,12.958-46.673l-6.17-1.335
			c-2.19,16.098-6.594,31.814-13.085,46.708v58.767h-46.637l-10.194-10.194l-2.97,2.968l6.015,6.016l-21.771,22.303v153.106h-10.492
			v8.398h9.445v84.999h-5.248v14.692h-83.952v-26.233h-40.928V677.18H238.1v-8.398H137.356V643.6h-29.383V523.968h-8.395v235.064
			h40.928v26.234h100.741v-14.689h246.606V495.633H466.868z M479.459,762.179H247.542V519.152l11.977-11.974h219.94V762.179z"/>
	</g>
	<g>
		<polygon class="st0" points="112.173,194.46 112.173,93.716 107.973,93.716 99.578,93.716 99.578,194.46 107.973,194.46 		"/>
		<path class="st0" d="M305.259,263.718v-12.591h-4.197v8.393h-26.237v17.156l0.152-0.063c6.32,15.02,9.806,31.082,10.286,47.368
			c-8.317,13.946-8.317,31.33,0,45.274c-0.102,3.508-0.346,7.011-0.73,10.501l4.127,0.894c0.469-4.164,0.746-8.35,0.832-12.535
			c-8.36-13.113-8.36-29.879,0-42.994c-0.343-17.078-3.896-33.94-10.466-49.709v-11.695H305.259z"/>
		<polygon class="st0" points="107.973,249.027 220.258,249.027 220.258,450.55 230.394,460.681 233.363,457.714 224.455,448.811 
			224.455,244.83 112.173,244.83 112.173,225.94 107.973,225.94 99.578,225.94 99.578,492.486 107.973,492.486 		"/>
		<polygon class="st0" points="112.173,62.236 112.173,43.346 133.377,43.346 163.384,32.359 191.494,27.592 219.639,27.592 
			247.751,32.359 277.758,43.346 292.667,43.346 292.667,49.643 301.062,49.643 301.062,219.644 305.259,219.644 305.259,39.149 
			458.47,39.149 458.47,83.225 466.868,83.225 466.868,30.751 279.986,30.751 250.995,20.136 220.701,15.001 190.434,15.001 
			160.139,20.136 131.146,30.751 99.578,30.751 99.578,62.236 107.973,62.236 		"/>
		<path class="st0" d="M466.868,495.633V114.703h-8.398v384.081H321.002v-61.668c6.371-14.912,10.728-30.609,12.958-46.673
			l-6.17-1.335c-2.19,16.098-6.594,31.814-13.085,46.708v58.767h-46.637l-10.194-10.194l-2.97,2.968l6.015,6.016l-21.771,22.303
			v153.106h-10.492v8.398h9.445v84.999h-5.248v14.692h-83.952v-26.233h-40.928V677.18h126.45v-8.398h-97.067V643.6h-29.383V523.968
			h-8.395v235.064h40.928v26.234h100.741v-14.689h246.606V495.633H466.868z M479.459,762.179H247.542V519.152l11.977-11.974h219.94
			V762.179z"/>
	</g>
	<path class="st0" d="M140.506,249.519h35.679 M140.506,262.111h15.041 M159.044,262.111h17.142 M140.506,274.703h10.412
		 M163.673,274.703h56.588 M140.506,287.298h0.364 M190.656,287.298h29.604 M141.138,287.298h12.204 M140.506,299.892h0.364
		 M197.335,299.892h15.02 M212.355,299.892h7.906 M140.506,311.989v-39.876 M140.506,272.113v-23.085 M153.098,299.892v-21.491
		 M153.098,263.676v-4.155 M153.098,251.127v-2.1 M165.693,281.563v-9.451 M165.693,272.113v-12.592 M165.693,251.127v-2.1
		 M178.285,281.563v-7.354 M190.878,297.402V274.21 M203.468,311.989v-20.987 M216.06,311.989v-8.395 M203.468,291.002v-5.638
		 M216.06,303.594v-23.445 M203.468,285.364V274.21 M216.06,280.149v-5.94 M140.506,299.892h12.3"/>
	<g id="ELLIPSE_12_">
		<path class="st1" d="M157.296,280.507c3.948,0,7.148-4.227,7.148-9.445c0-5.211-3.2-9.445-7.148-9.445
			c-3.948,0-7.149,4.234-7.149,9.445C150.147,276.28,153.348,280.507,157.296,280.507"/>
	</g>
	<g id="LWPOLYLINE_617_">
		<path class="st1" d="M144.704,257.422v-4.197c0-1.16,0.936-2.097,2.097-2.097h20.99c1.158,0,2.097,0.937,2.097,2.097v4.197
			c0,1.158-0.939,2.099-2.097,2.099h-20.99C145.639,259.521,144.704,258.58,144.704,257.422z"/>
	</g>
	<g id="LINE_2470_">
		<line class="st1" x1="335.692" y1="275.263" x2="335.692" y2="326.681"/>
	</g>
	<g id="LINE_2472_">
		<line class="st1" x1="335.692" y1="370.756" x2="335.692" y2="417.979"/>
	</g>
	<g id="LINE_2480_">
		<line class="st1" x1="325.199" y1="428.474" x2="325.199" y2="457.859"/>
	</g>
	<g id="LINE_2482_">
		<line class="st1" x1="321.002" y1="462.053" x2="321.002" y2="498.783"/>
	</g>
	<g id="LINE_2485_">
		<line class="st1" x1="330.447" y1="498.783" x2="330.447" y2="457.859"/>
	</g>
	<g id="LINE_2486_">
		<line class="st1" x1="321.002" y1="457.859" x2="339.89" y2="457.859"/>
	</g>
	<g id="LINE_2487_">
		<line class="st1" x1="335.692" y1="275.263" x2="454.273" y2="275.263"/>
	</g>
	<g id="LINE_2488_">
		<line class="st1" x1="335.692" y1="422.176" x2="454.273" y2="422.176"/>
	</g>
	<g id="LINE_2489_">
		<line class="st1" x1="325.199" y1="428.474" x2="458.47" y2="428.474"/>
	</g>
	<g id="ARC_106_">
		<path class="st2" d="M296.258,425.579c4.93-11.716,8.396-23.991,10.334-36.555"/>
	</g>
	<g id="LINE_2493_">
		<line class="st2" x1="279.881" y1="409.723" x2="279.12" y2="411.441"/>
	</g>
	<g id="LINE_2494_">
		<line class="st2" x1="270.331" y1="414.362" x2="276.911" y2="417.442"/>
	</g>
	<g id="CIRCLE_7_">
		<path class="st2" d="M279.297,410.592c0-1.158-0.939-2.097-2.097-2.097c-1.158,0-2.097,0.939-2.097,2.097
			c0,1.161,0.939,2.1,2.097,2.1C278.359,412.692,279.297,411.754,279.297,410.592L279.297,410.592z"/>
	</g>
	<g id="ARC_107_">
		<path class="st2" d="M275.664,402.956c-3.15-1.471-6.899-0.114-8.369,3.036c-1.476,3.15-0.114,6.898,3.036,8.371"/>
	</g>
	<g id="LWPOLYLINE_579_">
		<path class="st2" d="M295.469,425.552c-0.012,0.436,0.328,0.799,0.764,0.812c0.432,0.015,0.797-0.325,0.809-0.761
			c0.017-0.433-0.323-0.797-0.761-0.812C295.846,424.777,295.485,425.119,295.469,425.552z"/>
	</g>
	<g id="ARC_108_">
		<path class="st2" d="M279.881,409.723c3.353-9.586,5.613-19.518,6.726-29.61"/>
	</g>
	<g id="ARC_109_">
		<path class="st1" d="M286.607,380.113c0.418-3.794,0.676-7.6,0.773-11.416"/>
	</g>
	<g id="LINE_2495_">
		<line class="st1" x1="329.312" y1="370.756" x2="287.357" y2="369.469"/>
	</g>
	<g id="LINE_2496_">
		<line class="st1" x1="286.854" y1="377.651" x2="328.652" y2="381.534"/>
	</g>
	<g id="LINE_2497_">
		<line class="st2" x1="327.332" y1="392.253" x2="285.858" y2="385.799"/>
	</g>
	<g id="LINE_2498_">
		<line class="st2" x1="284.358" y1="393.869" x2="325.359" y2="402.87"/>
	</g>
	<g id="LINE_2499_">
		<line class="st2" x1="322.741" y1="413.345" x2="282.373" y2="401.83"/>
	</g>
	<g id="LINE_2500_">
		<line class="st2" x1="279.907" y1="409.654" x2="319.536" y2="423.496"/>
	</g>
	<g id="LINE_2501_">
		<line class="st2" x1="315.605" y1="433.715" x2="276.911" y2="417.442"/>
	</g>
	<g id="ARC_110_">
		<path class="st2" d="M278.026,408.664c3.248-9.359,5.428-19.058,6.507-28.906"/>
	</g>
	<g id="ARC_115_">
		<path class="st1" d="M327.79,389.107c0.827-6.088,1.334-12.211,1.522-18.351"/>
	</g>
	<g id="LINE_2502_">
		<line class="st1" x1="329.312" y1="322.484" x2="287.357" y2="323.772"/>
	</g>
	<g id="LINE_2503_">
		<line class="st1" x1="286.854" y1="315.588" x2="328.652" y2="311.709"/>
	</g>
	<g id="LINE_2504_">
		<line class="st1" x1="327.332" y1="300.989" x2="285.858" y2="307.44"/>
	</g>
	<g id="LINE_2505_">
		<line class="st1" x1="284.358" y1="299.371" x2="325.359" y2="290.37"/>
	</g>
	<g id="LINE_2506_">
		<line class="st1" x1="322.741" y1="279.896" x2="282.373" y2="291.408"/>
	</g>
	<g id="LINE_2507_">
		<line class="st1" x1="279.907" y1="283.588" x2="319.536" y2="269.748"/>
	</g>
	<g id="LINE_2508_">
		<line class="st1" x1="315.605" y1="259.523" x2="276.911" y2="275.801"/>
	</g>
	<g id="ARC_116_">
		<path class="st1" d="M329.312,322.484c-0.664-21.65-5.311-42.994-13.707-62.96"/>
	</g>
	<g id="LWPOLYLINE_580_">
		<path class="st1" d="M276.911,275.801c6.501,15.451,10.051,31.981,10.469,48.742c-8.344,13.535-8.344,30.617,0,44.153"/>
	</g>
	<g id="LWPOLYLINE_583_">
		<polygon class="st2" points="306.592,389.025 300.738,390.415 300.93,391.218 306.322,389.936 310.123,393.965 310.723,393.4 		
			"/>
	</g>
	<g id="LINE_2513_">
		<line class="st1" x1="339.89" y1="498.783" x2="339.89" y2="457.859"/>
	</g>
	<g id="LINE_2517_">
		<line class="st1" x1="458.47" y1="498.783" x2="325.199" y2="428.474"/>
	</g>
	<g id="LINE_2518_">
		<line class="st1" x1="339.89" y1="498.783" x2="458.47" y2="428.474"/>
	</g>
	<g id="LINE_2519_">
		<line class="st1" x1="335.692" y1="422.176" x2="454.273" y2="275.263"/>
	</g>
	<g id="LINE_2520_">
		<line class="st1" x1="335.692" y1="275.263" x2="454.273" y2="422.176"/>
	</g>
	<g id="LINE_2521_">
		<line class="st2" x1="275.664" y1="402.956" x2="279.341" y2="404.672"/>
	</g>
	<g id="LINE_2527_">
		<line class="st2" x1="226.555" y1="670.356" x2="226.555" y2="676.13"/>
	</g>
	<g id="LINE_2529_">
		<line class="st2" x1="192.975" y1="670.356" x2="192.975" y2="676.13"/>
	</g>
	<g id="LINE_2530_">
		<line class="st2" x1="228.655" y1="676.13" x2="226.555" y2="676.13"/>
	</g>
	<g id="LINE_2531_">
		<line class="st2" x1="190.875" y1="676.13" x2="192.975" y2="676.13"/>
	</g>
	<g id="LINE_2533_">
		<line class="st2" x1="226.555" y1="670.356" x2="228.655" y2="670.356"/>
	</g>
	<g id="LINE_2534_">
		<line class="st2" x1="190.875" y1="670.356" x2="192.975" y2="670.356"/>
	</g>
	<g id="LINE_2536_">
		<line class="st1" x1="202.811" y1="646.613" x2="226.555" y2="670.356"/>
	</g>
	<g id="ARC_117_">
		<path class="st1" d="M202.811,646.613c-6.301,6.298-9.836,14.84-9.836,23.743"/>
	</g>
	<g id="LINE_2538_">
		<line class="st1" x1="329.312" y1="370.756" x2="335.692" y2="370.756"/>
	</g>
	<g id="LINE_2539_">
		<line class="st1" x1="329.312" y1="326.681" x2="335.692" y2="326.681"/>
	</g>
	<g id="LWPOLYLINE_585_">
		<polyline class="st2" points="279.037,378.571 305.792,384.352 306.418,388.914 311.322,381.124 311.948,385.682 338.703,391.465 
					"/>
	</g>
	<g id="LINE_2540_">
		<line class="st2" x1="107.973" y1="523.968" x2="99.578" y2="523.968"/>
	</g>
	<g id="LINE_2541_">
		<line class="st2" x1="107.973" y1="492.486" x2="99.578" y2="492.486"/>
	</g>
	<g id="LINE_2544_">
		<line class="st2" x1="107.973" y1="492.486" x2="107.973" y2="523.968"/>
	</g>
	<g id="LINE_2545_">
		<line class="st2" x1="101.678" y1="492.486" x2="101.678" y2="523.968"/>
	</g>
	<g id="LINE_2546_">
		<line class="st2" x1="107.973" y1="494.583" x2="101.678" y2="494.583"/>
	</g>
	<g id="LINE_2547_">
		<line class="st2" x1="107.973" y1="521.869" x2="101.678" y2="521.869"/>
	</g>
	<g id="LINE_2548_">
		<line class="st2" x1="105.349" y1="494.583" x2="105.349" y2="521.869"/>
	</g>
	<g id="LINE_2549_">
		<line class="st2" x1="104.299" y1="494.583" x2="104.299" y2="521.869"/>
	</g>
	<g id="LINE_2550_">
		<line class="st2" x1="99.578" y1="523.968" x2="99.578" y2="492.486"/>
	</g>
	<g id="LINE_2551_">
		<line class="st2" x1="107.973" y1="225.94" x2="99.578" y2="225.94"/>
	</g>
	<g id="LINE_2552_">
		<line class="st2" x1="107.973" y1="194.46" x2="99.578" y2="194.46"/>
	</g>
	<g id="LINE_2555_">
		<line class="st2" x1="107.973" y1="194.46" x2="107.973" y2="225.94"/>
	</g>
	<g id="LINE_2556_">
		<line class="st2" x1="101.678" y1="194.46" x2="101.678" y2="225.94"/>
	</g>
	<g id="LINE_2557_">
		<line class="st2" x1="107.973" y1="196.557" x2="101.678" y2="196.557"/>
	</g>
	<g id="LINE_2558_">
		<line class="st2" x1="107.973" y1="223.841" x2="101.678" y2="223.841"/>
	</g>
	<g id="LINE_2559_">
		<line class="st2" x1="105.349" y1="196.557" x2="105.349" y2="223.841"/>
	</g>
	<g id="LINE_2560_">
		<line class="st2" x1="104.299" y1="196.557" x2="104.299" y2="223.841"/>
	</g>
	<g id="LINE_2561_">
		<line class="st2" x1="99.578" y1="225.94" x2="99.578" y2="194.46"/>
	</g>
	<g id="LINE_2562_">
		<line class="st2" x1="458.47" y1="83.225" x2="466.868" y2="83.225"/>
	</g>
	<g id="LINE_2563_">
		<line class="st2" x1="458.47" y1="114.703" x2="466.868" y2="114.703"/>
	</g>
	<g id="LINE_2566_">
		<line class="st2" x1="458.47" y1="114.703" x2="458.47" y2="83.225"/>
	</g>
	<g id="LINE_2567_">
		<line class="st2" x1="464.768" y1="114.703" x2="464.768" y2="83.225"/>
	</g>
	<g id="LINE_2568_">
		<line class="st2" x1="458.47" y1="112.605" x2="464.768" y2="112.605"/>
	</g>
	<g id="LINE_2569_">
		<line class="st2" x1="458.47" y1="85.323" x2="464.768" y2="85.323"/>
	</g>
	<g id="LINE_2570_">
		<line class="st2" x1="461.094" y1="112.605" x2="461.094" y2="85.323"/>
	</g>
	<g id="LINE_2571_">
		<line class="st2" x1="462.144" y1="112.605" x2="462.144" y2="85.323"/>
	</g>
	<g id="LINE_2572_">
		<line class="st2" x1="466.868" y1="83.225" x2="466.868" y2="114.703"/>
	</g>
	<g id="LWPOLYLINE_586_">
		<rect x="369.551" y="239.343" class="st2" width="37.776" height="25.186"/>
	</g>
	<g id="CIRCLE_8_">
		<path class="st2" d="M450.917,230.839c0-6.955-5.64-12.59-12.595-12.59c-6.955,0-12.592,5.636-12.592,12.59
			c0,6.955,5.637,12.592,12.592,12.592C445.277,243.431,450.917,237.794,450.917,230.839L450.917,230.839z"/>
	</g>
	<g id="LINE_2722_">
		<line class="st2" x1="254.903" y1="487.348" x2="220.913" y2="487.348"/>
	</g>
	<g id="ARC_120_">
		<path class="st2" d="M230.749,460.428c-6.298,6.301-9.836,18.016-9.836,26.92"/>
	</g>
	<g id="LINE_2738_">
		<line class="st2" x1="305.259" y1="219.644" x2="327.522" y2="241.904"/>
	</g>
	<g id="ARC_121_">
		<path class="st2" d="M305.259,251.127c8.348,0,16.356-3.32,22.263-9.224"/>
	</g>
	<g id="LINE_2741_">
		<line class="st1" x1="380.816" y1="181.865" x2="401.594" y2="161.087"/>
	</g>
	<g id="ARC_122_">
		<path class="st1" d="M410.196,181.865c0-7.793-3.096-15.267-8.602-20.778"/>
	</g>
	<g id="LINE_2742_">
		<line class="st1" x1="439.581" y1="181.865" x2="418.806" y2="161.087"/>
	</g>
	<g id="ARC_123_">
		<path class="st1" d="M418.806,161.087c-5.514,5.511-8.61,12.985-8.61,20.778"/>
	</g>
	<g id="LINE_2745_">
		<line class="st1" x1="305.259" y1="207.052" x2="327.522" y2="184.789"/>
	</g>
	<g id="ARC_124_">
		<path class="st1" d="M327.522,184.789c-5.906-5.903-13.914-9.219-22.263-9.219"/>
	</g>
	<g id="LINE_2748_">
		<line class="st2" x1="107.973" y1="62.236" x2="99.578" y2="62.236"/>
	</g>
	<g id="LINE_2749_">
		<line class="st2" x1="107.973" y1="93.716" x2="99.578" y2="93.716"/>
	</g>
	<g id="LINE_2752_">
		<line class="st2" x1="107.973" y1="93.716" x2="107.973" y2="62.236"/>
	</g>
	<g id="LINE_2753_">
		<line class="st2" x1="101.678" y1="93.716" x2="101.678" y2="62.236"/>
	</g>
	<g id="LINE_2754_">
		<line class="st2" x1="107.973" y1="91.619" x2="101.678" y2="91.619"/>
	</g>
	<g id="LINE_2755_">
		<line class="st2" x1="107.973" y1="64.336" x2="101.678" y2="64.336"/>
	</g>
	<g id="LINE_2756_">
		<line class="st2" x1="105.349" y1="91.619" x2="105.349" y2="64.336"/>
	</g>
	<g id="LINE_2757_">
		<line class="st2" x1="104.299" y1="91.619" x2="104.299" y2="64.336"/>
	</g>
	<g id="LINE_2758_">
		<line class="st2" x1="99.578" y1="62.236" x2="99.578" y2="93.716"/>
	</g>
	<g id="ARC_125_">
		<path class="st1" d="M193.646,268.872c1.189,0.409,2.436,0.617,3.689,0.617"/>
	</g>
	<g id="ARC_126_">
		<path class="st1" d="M201.022,268.872c1.091-0.379,2.106-0.951,2.991-1.688"/>
	</g>
	<g id="ARC_127_">
		<path class="st1" d="M160.005,279.83c0.964-0.512,1.811-1.225,2.484-2.088"/>
	</g>
	<g id="ARC_128_">
		<path class="st1" d="M154.583,279.83c0.835,0.445,1.765,0.677,2.712,0.677"/>
	</g>
	<g id="ARC_129_">
		<path class="st1" d="M150.532,267.353c-0.385,1.199-0.584,2.452-0.584,3.71"/>
	</g>
	<g id="ARC_130_">
		<path class="st1" d="M164.057,274.777c0.39-1.202,0.584-2.454,0.584-3.714"/>
	</g>
	<g id="ARC_131_">
		<path class="st1" d="M150.532,274.777c0.346,1.07,0.876,2.078,1.568,2.965"/>
	</g>
	<g id="LINE_2763_">
		<line class="st1" x1="220.258" y1="274.21" x2="176.182" y2="274.21"/>
	</g>
	<g id="ARC_132_">
		<path class="st1" d="M206.09,264.557c0.451-0.915,0.689-1.917,0.689-2.94"/>
	</g>
	<g id="ARC_133_">
		<path class="st1" d="M206.09,258.681c-0.504-1.008-1.211-1.906-2.078-2.627"/>
	</g>
	<g id="ARC_134_">
		<path class="st1" d="M201.022,254.366c-1.187-0.406-2.434-0.618-3.687-0.618"/>
	</g>
	<g id="ARC_135_">
		<path class="st1" d="M188.579,258.681c-0.451,0.915-0.689,1.919-0.689,2.937"/>
	</g>
	<g id="ARC_136_">
		<path class="st1" d="M160.005,262.298c-0.832-0.447-1.765-0.68-2.709-0.68"/>
	</g>
	<g id="ARC_137_">
		<path class="st1" d="M154.583,262.298c-0.964,0.515-1.811,1.225-2.484,2.088"/>
	</g>
	<g id="ARC_138_">
		<path class="st1" d="M193.646,254.366c-1.089,0.376-2.102,0.949-2.989,1.688"/>
	</g>
	<g id="LINE_2764_">
		<line class="st1" x1="176.182" y1="249.027" x2="176.182" y2="274.21"/>
	</g>
	<g id="LINE_2765_">
		<line class="st1" x1="140.506" y1="249.027" x2="140.506" y2="311.989"/>
	</g>
	<g id="LWPOLYLINE_616_">
		<path class="st1" d="M117.088,252.14c-3.477,0-6.294,2.819-6.294,6.294v43.027c0,4.637,3.76,8.393,8.395,8.393h9.445
			c4.635,0,8.395-3.756,8.395-8.393v-43.027c0-3.475-2.819-6.294-6.294-6.294H117.088z"/>
	</g>
	<g id="ARC_139_">
		<path class="st1" d="M188.579,264.557c0.504,1.01,1.211,1.905,2.078,2.627"/>
	</g>
	<g id="ARC_140_">
		<path class="st1" d="M164.057,267.353c-0.343-1.074-0.875-2.078-1.568-2.967"/>
	</g>
	<g id="LINE_2769_">
		<line class="st1" x1="220.258" y1="307.795" x2="199.483" y2="287.017"/>
	</g>
	<g id="ARC_141_">
		<path class="st1" d="M220.258,278.41c-7.792,0-15.267,3.096-20.775,8.607"/>
	</g>
	<g id="LWPOLYLINE_622_">
		
			<rect x="319.149" y="422.176" transform="matrix(0.3418 -0.9398 0.9398 0.3418 -187.5649 582.8596)" class="st1" width="6.297" height="6.298"/>
	</g>
	<g id="LINE_2785_">
		<line class="st1" x1="320.412" y1="421.289" x2="324.182" y2="429.359"/>
	</g>
	<g id="LINE_2786_">
		<line class="st1" x1="326.332" y1="423.442" x2="318.264" y2="427.21"/>
	</g>
	<g id="LINE_2791_">
		<line class="st1" x1="314.704" y1="451.561" x2="325.199" y2="457.859"/>
	</g>
	<g id="LINE_2792_">
		<line class="st1" x1="325.199" y1="451.561" x2="314.704" y2="457.859"/>
	</g>
	<g id="LINE_2808_">
		<line class="st2" x1="285.795" y1="322.732" x2="287.623" y2="328.384"/>
	</g>
	<g id="LINE_2809_">
		<line class="st2" x1="289.535" y1="324.644" x2="283.888" y2="326.472"/>
	</g>
	<g id="LINE_2810_">
		<line class="st2" x1="285.795" y1="370.505" x2="287.623" y2="364.858"/>
	</g>
	<g id="LINE_2811_">
		<line class="st2" x1="289.535" y1="368.599" x2="283.888" y2="366.768"/>
	</g>
	<g id="LINE_2444_">
		<line class="st1" x1="454.273" y1="181.865" x2="454.273" y2="43.346"/>
	</g>
	<g id="LINE_2477_">
		<line class="st1" x1="141.553" y1="664.585" x2="141.553" y2="639.399"/>
	</g>
	<g id="LINE_2514_">
		<line class="st2" x1="454.273" y1="422.176" x2="458.47" y2="422.176"/>
	</g>
	<g id="LINE_2515_">
		<line class="st2" x1="454.273" y1="422.176" x2="454.273" y2="275.263"/>
	</g>
	<g id="LINE_2516_">
		<line class="st2" x1="454.273" y1="275.263" x2="458.47" y2="275.263"/>
	</g>
	<g id="LWPOLYLINE_584_">
		<path class="st1" d="M274.977,276.614l-0.152,0.063v139.391c0.117,0.026,0.229,0.066,0.338,0.114
			c6.2-14.897,9.624-30.8,10.099-46.926c-8.317-13.945-8.317-31.328,0-45.274C284.783,307.695,281.297,291.634,274.977,276.614z"/>
	</g>
	<g id="LINE_2522_">
		<line class="st1" x1="247.542" y1="762.179" x2="479.459" y2="507.178"/>
	</g>
	<g id="LINE_2523_">
		<line class="st1" x1="479.459" y1="762.179" x2="254.903" y2="513.069"/>
	</g>
	<g id="LINE_2524_">
		<line class="st1" x1="239.147" y1="664.585" x2="229.702" y2="664.585"/>
	</g>
	<g id="LINE_2525_">
		<line class="st1" x1="189.827" y1="664.585" x2="141.553" y2="664.585"/>
	</g>
	<g id="LINE_2532_">
		<line class="st1" x1="229.702" y1="664.585" x2="229.702" y2="668.783"/>
	</g>
	<g id="LINE_2535_">
		<line class="st1" x1="189.827" y1="664.585" x2="189.827" y2="668.783"/>
	</g>
	<g id="LINE_2537_">
		<line class="st1" x1="141.553" y1="639.399" x2="107.973" y2="639.399"/>
	</g>
	<g id="LINE_2666_">
		<line class="st1" x1="454.273" y1="43.346" x2="313.654" y2="43.346"/>
	</g>
	<g id="LWPOLYLINE_605_">
		<polyline class="st1" points="313.654,43.346 313.654,49.643 305.259,49.643 		"/>
	</g>
	<g id="LINE_2723_">
		<line class="st1" x1="361.927" y1="181.865" x2="361.927" y2="211.249"/>
	</g>
	<g id="LINE_2724_">
		<line class="st1" x1="366.124" y1="186.062" x2="366.124" y2="211.249"/>
	</g>
	<g id="LINE_2725_">
		<line class="st1" x1="454.273" y1="211.249" x2="454.273" y2="186.062"/>
	</g>
	<g id="LINE_2726_">
		<line class="st1" x1="454.273" y1="181.865" x2="439.581" y2="181.865"/>
	</g>
	<g id="LINE_2727_">
		<line class="st1" x1="380.816" y1="181.865" x2="361.927" y2="181.865"/>
	</g>
	<g id="LINE_2728_">
		<line class="st1" x1="454.273" y1="186.062" x2="439.581" y2="186.062"/>
	</g>
	<g id="LINE_2729_">
		<line class="st1" x1="380.816" y1="186.062" x2="366.124" y2="186.062"/>
	</g>
	<g id="LINE_2730_">
		<line class="st1" x1="454.273" y1="211.249" x2="366.124" y2="211.249"/>
	</g>
	<g id="LINE_2731_">
		<line class="st1" x1="361.927" y1="211.249" x2="353.532" y2="211.249"/>
	</g>
	<g id="LINE_2732_">
		<line class="st1" x1="454.273" y1="198.654" x2="366.124" y2="198.654"/>
	</g>
	<g id="LINE_2733_">
		<line class="st1" x1="454.273" y1="200.754" x2="366.124" y2="200.754"/>
	</g>
	<g id="LINE_2734_">
		<line class="st1" x1="349.335" y1="211.249" x2="305.259" y2="211.249"/>
	</g>
	<g id="LINE_2735_">
		<line class="st1" x1="458.47" y1="215.447" x2="305.259" y2="215.447"/>
	</g>
	<g id="LINE_2739_">
		<line class="st1" x1="439.581" y1="181.865" x2="439.581" y2="186.062"/>
	</g>
	<g id="LINE_2740_">
		<line class="st1" x1="380.816" y1="181.865" x2="380.816" y2="186.062"/>
	</g>
	<g id="LINE_2743_">
		<line class="st1" x1="305.259" y1="175.57" x2="301.062" y2="175.57"/>
	</g>
	<g id="LINE_2744_">
		<line class="st1" x1="305.259" y1="207.052" x2="301.062" y2="207.052"/>
	</g>
	<g id="LINE_2746_">
		<line class="st1" x1="458.47" y1="83.225" x2="454.273" y2="83.225"/>
	</g>
	<g id="LINE_2747_">
		<line class="st1" x1="458.47" y1="114.703" x2="454.273" y2="114.703"/>
	</g>
	<g id="LINE_2761_">
		<line class="st1" x1="220.258" y1="311.989" x2="107.973" y2="311.989"/>
	</g>
	<g id="LINE_2762_">
		<line class="st1" x1="220.258" y1="316.189" x2="107.973" y2="316.189"/>
	</g>
	<g id="LINE_2766_">
		<line class="st1" x1="107.973" y1="249.027" x2="107.973" y2="311.989"/>
	</g>
	<g id="LINE_2767_">
		<line class="st1" x1="220.258" y1="307.795" x2="224.455" y2="307.795"/>
	</g>
	<g id="LINE_2768_">
		<line class="st1" x1="220.258" y1="278.41" x2="224.455" y2="278.41"/>
	</g>
	<line class="st0" x1="112.173" y1="231.111" x2="112.173" y2="57.065"/>
	<line class="st1" x1="238.1" y1="677.18" x2="148.901" y2="750.639"/>
	<line class="st1" x1="107.973" y1="677.18" x2="241.247" y2="785.266"/>
	<g id="TEXT_99_">
		<g>
			<g>
				<path d="M92.718,802.255v-6.592h1.986c0.527,0,1.046,0.035,1.397,0.483c0.281,0.36,0.325,0.738,0.325,1.187
					c0,0.571-0.123,1.134-0.791,1.38v0.018c0.694,0.097,0.958,0.677,0.958,1.529c0,0.272-0.018,0.545-0.088,0.809
					c-0.264,0.835-0.738,1.187-1.617,1.187H92.718z M94.177,798.326c0.299,0,0.686,0.018,0.879-0.229
					c0.114-0.167,0.132-0.396,0.132-0.712c0-0.492-0.105-0.738-0.668-0.756h-0.571v1.696H94.177z M94.212,801.288
					c0.255,0,0.519,0.026,0.738-0.07c0.334-0.149,0.378-0.58,0.378-0.914c0-0.712-0.141-1.011-0.905-1.011h-0.475v1.995H94.212z"/>
				<path d="M97.112,802.255l1.573-6.592h1.661l1.494,6.592h-1.318l-0.325-1.67h-1.441l-0.325,1.67H97.112z M98.949,799.618h1.055
					l-0.334-1.872c-0.062-0.308-0.088-0.606-0.123-0.914c-0.009-0.149-0.026-0.299-0.044-0.439h-0.018
					c-0.018,0.141-0.035,0.29-0.044,0.439c-0.035,0.308-0.062,0.606-0.123,0.914L98.949,799.618z"/>
				<path d="M105.032,797.667c0.009-0.589-0.044-1.169-0.721-1.169c-0.413,0-0.677,0.167-0.677,0.615
					c0,0.501,0.316,0.694,0.703,0.94c0.404,0.255,1.151,0.747,1.494,1.081c0.422,0.413,0.554,0.809,0.554,1.38
					c0,1.248-0.826,1.898-2.03,1.898c-1.477,0-2.004-0.826-2.004-2.004v-0.483h1.23v0.387c-0.026,0.642,0.167,1.107,0.773,1.107
					c0.519,0,0.765-0.272,0.765-0.773c0-0.387-0.176-0.65-0.492-0.87c-0.642-0.501-1.441-0.861-1.942-1.521
					c-0.202-0.299-0.316-0.659-0.316-1.011c0-1.125,0.633-1.74,1.934-1.74c1.96,0,1.907,1.512,1.916,2.162H105.032z"/>
				<path d="M107.37,802.255v-6.592h3.463v0.967H108.6v1.661h2.057v0.967H108.6v2.03h2.232v0.967H107.37z"/>
				<path d="M113.021,802.255h-1.23v-6.592h1.96l0.659,3.059c0.105,0.501,0.176,1.011,0.229,1.521h0.018
					c0.062-0.65,0.105-1.09,0.193-1.521l0.659-3.059h1.951v6.592h-1.23v-2.074c0-1.31,0.026-2.619,0.105-3.929h-0.018l-1.318,6.003
					h-0.747l-1.292-6.003h-0.044c0.079,1.31,0.105,2.619,0.105,3.929V802.255z"/>
				<path d="M118.603,802.255v-6.592h3.463v0.967h-2.232v1.661h2.057v0.967h-2.057v2.03h2.232v0.967H118.603z"/>
				<path d="M125.977,795.663h1.23v6.592h-1.283l-0.958-2.347c-0.325-0.782-0.589-1.582-0.879-2.619h-0.018
					c0.044,0.545,0.097,1.213,0.132,1.881c0.035,0.659,0.062,1.318,0.062,1.846v1.239h-1.23v-6.592h1.274l0.958,2.399
					c0.316,0.765,0.58,1.547,0.879,2.619h0.018c-0.044-0.598-0.088-1.239-0.123-1.872s-0.062-1.266-0.062-1.854V795.663z"/>
				<path d="M127.954,795.663h4.104v0.967h-1.433v5.625h-1.23v-5.625h-1.441V795.663z"/>
				<path d="M96.497,812.802v-6.592h3.463v0.967h-2.232v1.661h2.057v0.967h-2.057v2.03h2.232v0.967H96.497z"/>
				<path d="M100.927,812.802v-6.592h1.23v5.625h2.285v0.967H100.927z"/>
				<path d="M105.287,812.802v-6.592h3.463v0.967h-2.232v1.661h2.057v0.967h-2.057v2.03h2.232v0.967H105.287z"/>
				<path d="M112.511,806.21h1.318l-1.424,6.592h-1.644l-1.459-6.592h1.318l0.773,4.228c0.07,0.369,0.114,0.747,0.149,1.125
					c0.018,0.176,0.053,0.36,0.053,0.545h0.018c0-0.185,0.035-0.369,0.053-0.545c0.035-0.378,0.079-0.756,0.149-1.125
					L112.511,806.21z"/>
				<path d="M114.893,812.802v-1.16h1.16v1.16H114.893z"/>
				<path d="M119.71,808.688v-2.382h1.046v2.382H119.71z"/>
				<path d="M121.406,812.802l1.573-6.592h1.661l1.494,6.592h-1.318l-0.325-1.67h-1.441l-0.325,1.67H121.406z M123.243,810.165
					h1.055l-0.334-1.872c-0.062-0.308-0.088-0.606-0.123-0.914c-0.009-0.149-0.026-0.299-0.044-0.439h-0.018
					c-0.018,0.141-0.035,0.29-0.044,0.439c-0.035,0.308-0.062,0.606-0.123,0.914L123.243,810.165z"/>
				<path d="M126.794,808.688v-2.382h1.046v2.382H126.794z"/>
			</g>
		</g>
	</g>
	<g id="TEXT_98_">
		<g>
			<g>
				<path d="M280.379,320.983c-1.259-0.04-2.195-0.139-2.195-1.615s0.936-1.575,2.195-1.615h0.705c1.318,0,2.281,0.099,2.281,1.615
					s-0.962,1.615-2.281,1.615H280.379z M281.545,320.034c0.409,0,1.075-0.033,1.075-0.666c0-0.659-0.679-0.666-1.154-0.666h-1.266
					c-0.396,0-1.272-0.02-1.272,0.666c0,0.725,0.863,0.666,1.246,0.666H281.545z"/>
				<path d="M278.302,317.245v-3.078h0.725v1.074h4.219v0.923h-4.219v1.081H278.302z"/>
				<path d="M283.246,314.002l-4.944-1.18v-1.246l4.944-1.12v0.988l-1.252,0.244v1.081l1.252,0.244V314.002z M281.269,312.625
					v-0.791l-1.404,0.25c-0.23,0.046-0.455,0.066-0.686,0.092c-0.112,0.006-0.224,0.02-0.329,0.033v0.014
					c0.105,0.013,0.217,0.026,0.329,0.033c0.231,0.026,0.455,0.046,0.686,0.092L281.269,312.625z"/>
			</g>
		</g>
	</g>
	<g>
		<rect x="370.506" y="346.397" class="st3" width="48.951" height="7.966"/>
		<g id="TEXT_97_">
			<g>
				<g>
					<path d="M371.812,352.937v-4.944h0.923v4.219h1.714v0.725H371.812z"/>
					<path d="M375.062,350.069c0.039-1.259,0.139-2.195,1.615-2.195s1.575,0.936,1.614,2.195v0.705c0,1.318-0.099,2.281-1.614,2.281
						c-1.517,0-1.615-0.962-1.615-2.281V350.069z M376.011,351.236c0,0.409,0.033,1.075,0.666,1.075
						c0.658,0,0.665-0.679,0.665-1.154v-1.266c0-0.396,0.021-1.272-0.665-1.272c-0.726,0-0.666,0.863-0.666,1.246V351.236z"/>
					<path d="M382.312,350.55c0.093,0.495,0.139,1.127,0.205,1.76h0.013c0.014-0.119,0.021-0.237,0.033-0.356
						c0.033-0.422,0.072-0.844,0.139-1.266l0.369-2.696h0.956l-0.917,4.944h-1.107l-0.369-1.951
						c-0.099-0.521-0.132-1.048-0.197-1.575h-0.014c-0.065,0.527-0.099,1.055-0.197,1.575l-0.33,1.951h-1.107l-0.942-4.944h0.956
						l0.415,2.696c0.066,0.422,0.105,0.844,0.139,1.266c0.013,0.119,0.02,0.237,0.026,0.356h0.013
						c0.072-0.633,0.119-1.266,0.211-1.76l0.448-2.558h0.765L382.312,350.55z"/>
					<path d="M386.274,352.937v-4.944h0.923v1.958h1.292v-1.958h0.923v4.944h-0.923v-2.261h-1.292v2.261H386.274z"/>
					<path d="M390.275,352.937v-4.944h2.597v0.725h-1.674v1.246h1.543v0.725h-1.543v1.523h1.674v0.725H390.275z"/>
					<path d="M393.209,352.937l1.18-4.944h1.246l1.12,4.944h-0.988l-0.244-1.252h-1.081l-0.244,1.252H393.209z M394.587,350.959
						h0.791l-0.251-1.404c-0.046-0.23-0.065-0.455-0.093-0.686c-0.006-0.112-0.02-0.224-0.032-0.329h-0.014
						c-0.013,0.105-0.026,0.217-0.032,0.329c-0.027,0.231-0.047,0.455-0.093,0.686L394.587,350.959z"/>
					<path d="M397.29,352.937v-4.944h1.925c0.224,0,0.673,0.099,0.956,0.56c0.211,0.343,0.27,0.89,0.27,1.708
						c0,0.976,0,2.103-0.758,2.544c-0.204,0.119-0.455,0.132-0.686,0.132H397.29z M398.615,352.211c0.823,0,0.876-0.435,0.876-1.866
						c0-1.167-0.118-1.628-0.672-1.628h-0.606v3.494H398.615z"/>
					<path d="M402.2,350.808v2.129h-0.922v-4.944h1.746c0.798,0,1.404,0.277,1.404,1.187c0,0.541-0.139,1.107-0.758,1.193v0.014
						c0.547,0.072,0.712,0.422,0.712,0.896c0,0.204-0.026,1.417,0.197,1.562v0.092h-1.015c-0.112-0.316-0.093-0.923-0.1-1.252
						c-0.006-0.303,0-0.718-0.316-0.811c-0.25-0.072-0.521-0.065-0.784-0.065H402.2z M402.2,350.082h0.726
						c0.304-0.02,0.54-0.217,0.54-0.712c0-0.554-0.23-0.646-0.58-0.652H402.2V350.082z"/>
					<path d="M405.272,350.069c0.039-1.259,0.139-2.195,1.615-2.195s1.575,0.936,1.614,2.195v0.705c0,1.318-0.099,2.281-1.614,2.281
						c-1.517,0-1.615-0.962-1.615-2.281V350.069z M406.222,351.236c0,0.409,0.033,1.075,0.666,1.075
						c0.658,0,0.665-0.679,0.665-1.154v-1.266c0-0.396,0.021-1.272-0.665-1.272c-0.726,0-0.666,0.863-0.666,1.246V351.236z"/>
					<path d="M409.301,350.069c0.039-1.259,0.138-2.195,1.614-2.195s1.576,0.936,1.615,2.195v0.705c0,1.318-0.099,2.281-1.615,2.281
						c-1.516,0-1.614-0.962-1.614-2.281V350.069z M410.25,351.236c0,0.409,0.032,1.075,0.665,1.075c0.66,0,0.666-0.679,0.666-1.154
						v-1.266c0-0.396,0.02-1.272-0.666-1.272c-0.725,0-0.665,0.863-0.665,1.246V351.236z"/>
					<path d="M414.29,352.937h-0.923v-4.944h1.47l0.495,2.294c0.079,0.375,0.132,0.758,0.171,1.14h0.014
						c0.046-0.487,0.079-0.817,0.145-1.14l0.494-2.294h1.464v4.944h-0.923v-1.556c0-0.982,0.02-1.964,0.079-2.946h-0.013
						l-0.989,4.502h-0.561l-0.969-4.502h-0.033c0.06,0.982,0.079,1.964,0.079,2.946V352.937z"/>
				</g>
			</g>
		</g>
	</g>
	<g id="TEXT_21_">
		<g>
			<g>
				<path d="M293.89,430.278h1.23v4.597c0,1.459-0.475,2.153-2.083,2.153c-1.626,0-2.1-0.694-2.1-2.153v-4.597h1.23v4.491
					c0,0.633,0.044,1.266,0.879,1.266c0.8,0,0.844-0.633,0.844-1.266V430.278z"/>
				<path d="M296.307,436.87v-6.592h2.514c1.178,0,1.538,0.949,1.538,1.872c0,0.562-0.149,1.195-0.615,1.564
					c-0.387,0.308-0.905,0.404-1.38,0.396h-0.826v2.76H296.307z M297.537,433.144h0.659c0.536,0,0.896-0.229,0.896-1.028
					c0-0.756-0.299-0.87-0.993-0.87h-0.562V433.144z"/>
			</g>
		</g>
	</g>
	<g id="TEXT_71_">
		<g>
			<g>
				<path d="M375.916,254.345v-4.944h2.616v0.725h-1.693v1.252h1.588v0.725h-1.588v2.241H375.916z"/>
				<path d="M381.394,249.401h0.923v3.448c0,1.094-0.356,1.615-1.562,1.615c-1.22,0-1.575-0.521-1.575-1.615v-3.448h0.923v3.369
					c0,0.475,0.033,0.949,0.659,0.949c0.6,0,0.633-0.475,0.633-0.949V249.401z"/>
				<path d="M384.116,252.216v2.129h-0.924v-4.944h1.747c0.798,0,1.404,0.277,1.404,1.187c0,0.541-0.139,1.107-0.758,1.193v0.014
					c0.547,0.072,0.712,0.422,0.712,0.896c0,0.204-0.026,1.417,0.197,1.562v0.092h-1.015c-0.112-0.316-0.093-0.923-0.099-1.252
					c-0.007-0.303,0-0.718-0.316-0.811c-0.251-0.072-0.521-0.065-0.785-0.065H384.116z M384.116,251.49h0.725
					c0.303-0.02,0.541-0.217,0.541-0.712c0-0.554-0.231-0.646-0.58-0.652h-0.686V251.49z"/>
				<path d="M389.442,249.401h0.923v4.944h-0.962l-0.719-1.76c-0.244-0.587-0.441-1.187-0.659-1.965h-0.013
					c0.032,0.409,0.072,0.91,0.099,1.411c0.026,0.494,0.046,0.988,0.046,1.384v0.93h-0.923v-4.944h0.956l0.719,1.799
					c0.236,0.574,0.435,1.16,0.658,1.965h0.014c-0.033-0.448-0.066-0.93-0.092-1.404c-0.027-0.475-0.047-0.949-0.047-1.391V249.401z
					"/>
				<path d="M390.873,254.345l1.18-4.944h1.246l1.12,4.944h-0.988l-0.244-1.252h-1.081l-0.244,1.252H390.873z M392.251,252.367
					h0.791l-0.251-1.404c-0.046-0.23-0.065-0.455-0.093-0.686c-0.006-0.112-0.02-0.224-0.032-0.329h-0.014
					c-0.013,0.105-0.026,0.217-0.032,0.329c-0.027,0.231-0.047,0.455-0.093,0.686L392.251,252.367z"/>
				<path d="M397.854,252.585c-0.007,0.092-0.013,0.191-0.02,0.283c-0.046,0.903-0.35,1.595-1.378,1.595
					c-1.516,0-1.615-0.962-1.615-2.281v-0.705c0.04-1.259,0.139-2.195,1.615-2.195c0.824,0.013,1.285,0.435,1.352,1.279
					c0.013,0.125,0.026,0.25,0.02,0.375h-0.91c-0.039-0.316-0.006-0.909-0.461-0.909c-0.725,0-0.666,0.863-0.666,1.246v1.371
					c0,0.409,0.033,1.075,0.666,1.075c0.508,0,0.448-0.817,0.468-1.134H397.854z"/>
				<path d="M398.565,254.345v-4.944h2.598v0.725h-1.675v1.246h1.542v0.725h-1.542v1.523h1.675v0.725H398.565z"/>
			</g>
		</g>
	</g>
	<g id="TEXT_70_">
		<g>
			<g>
				<path d="M432.365,233.728v-4.944h0.923v1.958h1.292v-1.958h0.923v4.944h-0.923v-2.261h-1.292v2.261H432.365z"/>
				<path d="M439.569,231.341c0.093,0.495,0.139,1.127,0.205,1.76h0.013c0.014-0.119,0.021-0.237,0.033-0.356
					c0.033-0.422,0.072-0.844,0.139-1.266l0.369-2.696h0.956l-0.917,4.944h-1.107l-0.369-1.951
					c-0.099-0.521-0.132-1.048-0.197-1.575h-0.014c-0.065,0.527-0.099,1.055-0.197,1.575l-0.33,1.951h-1.107l-0.942-4.944h0.956
					l0.415,2.696c0.066,0.422,0.105,0.844,0.139,1.266c0.013,0.119,0.02,0.237,0.026,0.356h0.013
					c0.072-0.633,0.119-1.266,0.211-1.76l0.448-2.558h0.765L439.569,231.341z"/>
				<path d="M441.548,228.784h3.078v0.725h-1.074v4.219h-0.923v-4.219h-1.081V228.784z"/>
			</g>
		</g>
	</g>
	<g>
		<rect x="333.307" y="629.538" class="st3" width="56.228" height="10.281"/>
		<g id="TEXT_18_">
			<g>
				<g>
					<path d="M339.21,630.942h1.23v4.597c0,1.459-0.475,2.153-2.083,2.153c-1.626,0-2.101-0.694-2.101-2.153v-4.597h1.23v4.491
						c0,0.633,0.044,1.266,0.879,1.266c0.8,0,0.844-0.633,0.844-1.266V630.942z"/>
					<path d="M344.571,630.942h1.23v6.592h-1.283l-0.958-2.347c-0.325-0.782-0.589-1.582-0.879-2.619h-0.018
						c0.044,0.545,0.097,1.213,0.132,1.881c0.035,0.659,0.062,1.318,0.062,1.846v1.239h-1.23v-6.592h1.274l0.958,2.399
						c0.316,0.765,0.58,1.547,0.879,2.619h0.018c-0.044-0.598-0.088-1.239-0.123-1.872s-0.062-1.266-0.062-1.854V630.942z"/>
					<path d="M346.963,637.534v-6.592h3.463v0.967h-2.232v1.661h2.057v0.967h-2.057v2.03h2.232v0.967H346.963z"/>
					<path d="M355.585,637.534h-1.406l-0.703-1.608c-0.114-0.264-0.202-0.545-0.255-0.835h-0.018
						c-0.053,0.439-0.246,0.835-0.422,1.23l-0.545,1.213h-1.345l1.617-3.34l-1.556-3.252h1.38l0.668,1.494
						c0.114,0.272,0.229,0.527,0.237,0.826h0.026c0.035-0.431,0.237-0.817,0.404-1.204l0.475-1.116h1.389l-1.582,3.252
						L355.585,637.534z"/>
					<path d="M360.182,635.188c-0.009,0.123-0.018,0.255-0.026,0.378c-0.062,1.204-0.466,2.127-1.837,2.127
						c-2.021,0-2.153-1.283-2.153-3.041v-0.94c0.053-1.679,0.185-2.927,2.153-2.927c1.099,0.018,1.714,0.58,1.802,1.705
						c0.018,0.167,0.035,0.334,0.026,0.501h-1.213c-0.053-0.422-0.009-1.213-0.615-1.213c-0.967,0-0.888,1.151-0.888,1.661v1.828
						c0,0.545,0.044,1.433,0.888,1.433c0.677,0,0.598-1.09,0.624-1.512H360.182z"/>
					<path d="M360.647,637.534l1.573-6.592h1.661l1.494,6.592h-1.318l-0.325-1.67h-1.441l-0.325,1.67H360.647z M362.484,634.897
						h1.055l-0.334-1.872c-0.062-0.308-0.088-0.606-0.123-0.914c-0.009-0.149-0.026-0.299-0.044-0.439h-0.018
						c-0.018,0.141-0.035,0.29-0.044,0.439c-0.035,0.308-0.062,0.606-0.123,0.914L362.484,634.897z"/>
					<path d="M368.848,630.942h1.318l-1.424,6.592h-1.644l-1.459-6.592h1.318l0.773,4.228c0.07,0.369,0.114,0.747,0.149,1.125
						c0.018,0.176,0.053,0.36,0.053,0.545h0.018c0-0.185,0.035-0.369,0.053-0.545c0.035-0.378,0.079-0.756,0.149-1.125
						L368.848,630.942z"/>
					<path d="M370.422,637.534l1.573-6.592h1.661l1.494,6.592h-1.318l-0.325-1.67h-1.441l-0.325,1.67H370.422z M372.259,634.897
						h1.055l-0.334-1.872c-0.062-0.308-0.088-0.606-0.123-0.914c-0.009-0.149-0.026-0.299-0.044-0.439h-0.018
						c-0.018,0.141-0.035,0.29-0.044,0.439c-0.035,0.308-0.062,0.606-0.123,0.914L372.259,634.897z"/>
					<path d="M375.379,630.942h4.104v0.967h-1.433v5.625h-1.23v-5.625h-1.441V630.942z"/>
					<path d="M380.187,637.534v-6.592h3.463v0.967h-2.232v1.661h2.057v0.967h-2.057v2.03h2.232v0.967H380.187z"/>
					<path d="M384.651,637.534v-6.592h2.566c0.299,0,0.896,0.132,1.274,0.747c0.281,0.457,0.36,1.187,0.36,2.276
						c0,1.301,0,2.804-1.011,3.393c-0.272,0.158-0.606,0.176-0.914,0.176H384.651z M386.418,636.567c1.099,0,1.169-0.58,1.169-2.487
						c0-1.556-0.158-2.171-0.896-2.171h-0.809v4.658H386.418z"/>
				</g>
			</g>
		</g>
	</g>
	<g id="TEXT_104_">
		<g>
			<g>
				<path d="M151.264,508.575h1.23v4.597c0,1.459-0.475,2.153-2.083,2.153c-1.626,0-2.101-0.694-2.101-2.153v-4.597h1.23v4.491
					c0,0.633,0.044,1.266,0.879,1.266c0.8,0,0.844-0.633,0.844-1.266V508.575z"/>
				<path d="M156.625,508.575h1.23v6.592h-1.283l-0.958-2.347c-0.325-0.782-0.589-1.582-0.879-2.619h-0.018
					c0.044,0.545,0.097,1.213,0.132,1.881c0.035,0.659,0.062,1.318,0.062,1.846v1.239h-1.23v-6.592h1.274l0.958,2.399
					c0.316,0.765,0.58,1.547,0.879,2.619h0.018c-0.044-0.598-0.088-1.239-0.123-1.872s-0.062-1.266-0.062-1.854V508.575z"/>
				<path d="M159.095,515.167v-6.592h3.489v0.967h-2.259v1.67h2.118v0.967h-2.118v2.988H159.095z"/>
				<path d="M163.455,515.167v-6.592h1.23v6.592H163.455z"/>
				<path d="M168.833,508.575h1.23v6.592h-1.283l-0.958-2.347c-0.325-0.782-0.589-1.582-0.879-2.619h-0.018
					c0.044,0.545,0.097,1.213,0.132,1.881c0.035,0.659,0.062,1.318,0.062,1.846v1.239h-1.23v-6.592h1.274l0.958,2.399
					c0.316,0.765,0.58,1.547,0.879,2.619h0.018c-0.044-0.598-0.088-1.239-0.123-1.872s-0.062-1.266-0.062-1.854V508.575z"/>
				<path d="M171.268,515.167v-6.592h1.23v6.592H171.268z"/>
				<path d="M176.216,510.579c0.009-0.589-0.044-1.169-0.721-1.169c-0.413,0-0.677,0.167-0.677,0.615
					c0,0.501,0.316,0.694,0.703,0.94c0.404,0.255,1.151,0.747,1.494,1.081c0.422,0.413,0.554,0.809,0.554,1.38
					c0,1.248-0.826,1.898-2.03,1.898c-1.477,0-2.004-0.826-2.004-2.004v-0.483h1.23v0.387c-0.026,0.642,0.167,1.107,0.773,1.107
					c0.519,0,0.765-0.272,0.765-0.773c0-0.387-0.176-0.65-0.492-0.87c-0.642-0.501-1.441-0.861-1.942-1.521
					c-0.202-0.299-0.316-0.659-0.316-1.011c0-1.125,0.633-1.74,1.934-1.74c1.96,0,1.907,1.512,1.916,2.162H176.216z"/>
				<path d="M178.59,515.167v-6.592h1.23v2.61h1.723v-2.61h1.23v6.592h-1.23v-3.015h-1.723v3.015H178.59z"/>
				<path d="M183.925,515.167v-6.592h3.463v0.967h-2.232v1.661h2.057v0.967h-2.057v2.03h2.232v0.967H183.925z"/>
				<path d="M188.39,515.167v-6.592h2.566c0.299,0,0.896,0.132,1.274,0.747c0.281,0.457,0.36,1.187,0.36,2.276
					c0,1.301,0,2.804-1.011,3.393c-0.272,0.158-0.606,0.176-0.914,0.176H188.39z M190.156,514.2c1.099,0,1.169-0.58,1.169-2.487
					c0-1.556-0.158-2.171-0.896-2.171h-0.809v4.658H190.156z"/>
				<path d="M150.965,525.715v-6.592h1.986c0.527,0,1.046,0.035,1.397,0.482c0.281,0.361,0.325,0.738,0.325,1.188
					c0,0.57-0.123,1.133-0.791,1.379v0.018c0.694,0.098,0.958,0.678,0.958,1.529c0,0.273-0.018,0.545-0.088,0.809
					c-0.264,0.836-0.738,1.188-1.617,1.188H150.965z M152.424,521.785c0.299,0,0.686,0.018,0.879-0.229
					c0.114-0.166,0.132-0.395,0.132-0.711c0-0.492-0.105-0.738-0.668-0.756h-0.571v1.695H152.424z M152.459,524.748
					c0.255,0,0.519,0.025,0.738-0.07c0.334-0.15,0.378-0.58,0.378-0.914c0-0.713-0.141-1.012-0.905-1.012h-0.475v1.996H152.459z"/>
				<path d="M155.359,525.715l1.573-6.592h1.661l1.494,6.592h-1.318l-0.325-1.67h-1.441l-0.325,1.67H155.359z M157.196,523.078
					h1.055l-0.334-1.873c-0.062-0.307-0.088-0.605-0.123-0.914c-0.009-0.148-0.026-0.299-0.044-0.439h-0.018
					c-0.018,0.141-0.035,0.291-0.044,0.439c-0.035,0.309-0.062,0.607-0.123,0.914L157.196,523.078z"/>
				<path d="M163.279,521.127c0.009-0.59-0.044-1.17-0.721-1.17c-0.413,0-0.677,0.168-0.677,0.615c0,0.502,0.316,0.695,0.703,0.941
					c0.404,0.254,1.151,0.746,1.494,1.08c0.422,0.414,0.554,0.809,0.554,1.381c0,1.248-0.826,1.898-2.03,1.898
					c-1.477,0-2.004-0.826-2.004-2.004v-0.484h1.23v0.387c-0.026,0.643,0.167,1.107,0.773,1.107c0.519,0,0.765-0.271,0.765-0.773
					c0-0.387-0.176-0.65-0.492-0.869c-0.642-0.502-1.441-0.861-1.942-1.521c-0.202-0.299-0.316-0.658-0.316-1.01
					c0-1.125,0.633-1.74,1.934-1.74c1.96,0,1.907,1.512,1.916,2.162H163.279z"/>
				<path d="M165.617,525.715v-6.592h3.463v0.967h-2.232v1.66h2.057v0.967h-2.057v2.031h2.232v0.967H165.617z"/>
				<path d="M171.268,525.715h-1.23v-6.592h1.96l0.659,3.059c0.105,0.5,0.176,1.01,0.229,1.52h0.018
					c0.062-0.65,0.105-1.09,0.193-1.52l0.659-3.059h1.951v6.592h-1.23v-2.074c0-1.311,0.026-2.619,0.105-3.93h-0.018l-1.318,6.004
					h-0.747l-1.292-6.004h-0.044c0.079,1.311,0.105,2.619,0.105,3.93V525.715z"/>
				<path d="M176.85,525.715v-6.592h3.463v0.967h-2.232v1.66h2.057v0.967h-2.057v2.031h2.232v0.967H176.85z"/>
				<path d="M184.224,519.123h1.23v6.592h-1.283l-0.958-2.348c-0.325-0.781-0.589-1.582-0.879-2.619h-0.018
					c0.044,0.545,0.097,1.213,0.132,1.881c0.035,0.66,0.062,1.318,0.062,1.846v1.24h-1.23v-6.592h1.274l0.958,2.398
					c0.316,0.766,0.58,1.547,0.879,2.619h0.018c-0.044-0.598-0.088-1.238-0.123-1.871s-0.062-1.266-0.062-1.855V519.123z"/>
				<path d="M186.201,519.123h4.104v0.967h-1.433v5.625h-1.23v-5.625h-1.441V519.123z"/>
			</g>
		</g>
	</g>
	<g id="TEXT_19_">
		<g>
			<g>
				<path d="M374.351,287.74h1.23v4.597c0,1.459-0.475,2.153-2.083,2.153c-1.626,0-2.101-0.694-2.101-2.153v-4.597h1.23v4.491
					c0,0.633,0.044,1.266,0.879,1.266c0.8,0,0.844-0.633,0.844-1.266V287.74z"/>
				<path d="M379.712,287.74h1.23v6.592h-1.283l-0.958-2.347c-0.325-0.782-0.589-1.582-0.879-2.619h-0.018
					c0.044,0.545,0.097,1.213,0.132,1.881c0.035,0.659,0.062,1.318,0.062,1.846v1.239h-1.23v-6.592h1.274L379,290.14
					c0.316,0.765,0.58,1.547,0.879,2.619h0.018c-0.044-0.598-0.088-1.239-0.123-1.872s-0.062-1.266-0.062-1.854V287.74z"/>
				<path d="M382.182,294.332v-6.592h3.489v0.967h-2.259v1.67h2.118v0.967h-2.118v2.988H382.182z"/>
				<path d="M386.541,294.332v-6.592h1.23v6.592H386.541z"/>
				<path d="M391.92,287.74h1.23v6.592h-1.283l-0.958-2.347c-0.325-0.782-0.589-1.582-0.879-2.619h-0.018
					c0.044,0.545,0.097,1.213,0.132,1.881c0.035,0.659,0.062,1.318,0.062,1.846v1.239h-1.23v-6.592h1.274l0.958,2.399
					c0.316,0.765,0.58,1.547,0.879,2.619h0.018c-0.044-0.598-0.088-1.239-0.123-1.872s-0.062-1.266-0.062-1.854V287.74z"/>
				<path d="M394.355,294.332v-6.592h1.23v6.592H394.355z"/>
				<path d="M399.304,289.744c0.009-0.589-0.044-1.169-0.721-1.169c-0.413,0-0.677,0.167-0.677,0.615
					c0,0.501,0.316,0.694,0.703,0.94c0.404,0.255,1.151,0.747,1.494,1.081c0.422,0.413,0.554,0.809,0.554,1.38
					c0,1.248-0.826,1.898-2.03,1.898c-1.477,0-2.004-0.826-2.004-2.004v-0.483h1.23v0.387c-0.026,0.642,0.167,1.107,0.773,1.107
					c0.519,0,0.765-0.272,0.765-0.773c0-0.387-0.176-0.65-0.492-0.87c-0.642-0.501-1.441-0.861-1.942-1.521
					c-0.202-0.299-0.316-0.659-0.316-1.011c0-1.125,0.633-1.74,1.934-1.74c1.96,0,1.907,1.512,1.916,2.162H399.304z"/>
				<path d="M401.677,294.332v-6.592h1.23v2.61h1.723v-2.61h1.23v6.592h-1.23v-3.015h-1.723v3.015H401.677z"/>
				<path d="M407.012,294.332v-6.592h3.463v0.967h-2.232v1.661h2.057v0.967h-2.057v2.03h2.232v0.967H407.012z"/>
				<path d="M411.477,294.332v-6.592h2.566c0.299,0,0.896,0.132,1.274,0.747c0.281,0.457,0.36,1.187,0.36,2.276
					c0,1.301,0,2.804-1.011,3.393c-0.272,0.158-0.606,0.176-0.914,0.176H411.477z M413.243,293.365c1.099,0,1.169-0.58,1.169-2.487
					c0-1.556-0.158-2.171-0.896-2.171h-0.809v4.658H413.243z"/>
				<path d="M374.052,304.879v-6.592h1.986c0.527,0,1.046,0.035,1.397,0.483c0.281,0.36,0.325,0.738,0.325,1.187
					c0,0.571-0.123,1.134-0.791,1.38v0.018c0.694,0.097,0.958,0.677,0.958,1.529c0,0.272-0.018,0.545-0.088,0.809
					c-0.264,0.835-0.738,1.187-1.617,1.187H374.052z M375.511,300.951c0.299,0,0.686,0.018,0.879-0.229
					c0.114-0.167,0.132-0.396,0.132-0.712c0-0.492-0.105-0.738-0.668-0.756h-0.571v1.696H375.511z M375.546,303.913
					c0.255,0,0.519,0.026,0.738-0.07c0.334-0.149,0.378-0.58,0.378-0.914c0-0.712-0.141-1.011-0.905-1.011h-0.475v1.995H375.546z"/>
				<path d="M378.446,304.879l1.573-6.592h1.661l1.494,6.592h-1.318l-0.325-1.67h-1.441l-0.325,1.67H378.446z M380.283,302.243
					h1.055l-0.334-1.872c-0.062-0.308-0.088-0.606-0.123-0.914c-0.009-0.149-0.026-0.299-0.044-0.439h-0.018
					c-0.018,0.141-0.035,0.29-0.044,0.439c-0.035,0.308-0.062,0.606-0.123,0.914L380.283,302.243z"/>
				<path d="M386.365,300.292c0.009-0.589-0.044-1.169-0.721-1.169c-0.413,0-0.677,0.167-0.677,0.615
					c0,0.501,0.316,0.694,0.703,0.94c0.404,0.255,1.151,0.747,1.494,1.081c0.422,0.413,0.554,0.809,0.554,1.38
					c0,1.248-0.826,1.898-2.03,1.898c-1.477,0-2.004-0.826-2.004-2.004v-0.483h1.23v0.387c-0.026,0.642,0.167,1.107,0.773,1.107
					c0.519,0,0.765-0.272,0.765-0.773c0-0.387-0.176-0.65-0.492-0.87c-0.642-0.501-1.441-0.861-1.942-1.521
					c-0.202-0.299-0.316-0.659-0.316-1.011c0-1.125,0.633-1.74,1.934-1.74c1.96,0,1.907,1.512,1.916,2.162H386.365z"/>
				<path d="M388.704,304.879v-6.592h3.463v0.967h-2.232v1.661h2.057v0.967h-2.057v2.03h2.232v0.967H388.704z"/>
				<path d="M394.355,304.879h-1.23v-6.592h1.96l0.659,3.059c0.105,0.501,0.176,1.011,0.229,1.521h0.018
					c0.062-0.65,0.105-1.09,0.193-1.521l0.659-3.059h1.951v6.592h-1.23v-2.074c0-1.31,0.026-2.619,0.105-3.929h-0.018l-1.318,6.003
					h-0.747l-1.292-6.003h-0.044c0.079,1.31,0.105,2.619,0.105,3.929V304.879z"/>
				<path d="M399.937,304.879v-6.592h3.463v0.967h-2.232v1.661h2.057v0.967h-2.057v2.03h2.232v0.967H399.937z"/>
				<path d="M407.311,298.288h1.23v6.592h-1.283l-0.958-2.347c-0.325-0.782-0.589-1.582-0.879-2.619h-0.018
					c0.044,0.545,0.097,1.213,0.132,1.881c0.035,0.659,0.062,1.318,0.062,1.846v1.239h-1.23v-6.592h1.274l0.958,2.399
					c0.316,0.765,0.58,1.547,0.879,2.619h0.018c-0.044-0.598-0.088-1.239-0.123-1.872s-0.062-1.266-0.062-1.854V298.288z"/>
				<path d="M409.288,298.288h4.104v0.967h-1.433v5.625h-1.23v-5.625h-1.441V298.288z"/>
			</g>
		</g>
	</g>
	<g id="TEXT_20_">
		<g>
			<g>
				<path d="M361.659,116.552h1.23v4.597c0,1.459-0.475,2.153-2.083,2.153c-1.626,0-2.101-0.694-2.101-2.153v-4.597h1.23v4.491
					c0,0.633,0.044,1.266,0.879,1.266c0.8,0,0.844-0.633,0.844-1.266V116.552z"/>
				<path d="M367.021,116.552h1.23v6.592h-1.283l-0.958-2.347c-0.325-0.782-0.589-1.582-0.879-2.619h-0.018
					c0.044,0.545,0.097,1.213,0.132,1.881c0.035,0.659,0.062,1.318,0.062,1.846v1.239h-1.23v-6.592h1.274l0.958,2.399
					c0.316,0.765,0.58,1.547,0.879,2.619h0.018c-0.044-0.598-0.088-1.239-0.123-1.872s-0.062-1.266-0.062-1.854V116.552z"/>
				<path d="M369.49,123.144v-6.592h3.489v0.967h-2.259v1.67h2.118v0.967h-2.118v2.988H369.49z"/>
				<path d="M373.85,123.144v-6.592h1.23v6.592H373.85z"/>
				<path d="M379.229,116.552h1.23v6.592h-1.283l-0.958-2.347c-0.325-0.782-0.589-1.582-0.879-2.619h-0.018
					c0.044,0.545,0.097,1.213,0.132,1.881c0.035,0.659,0.062,1.318,0.062,1.846v1.239h-1.23v-6.592h1.274l0.958,2.399
					c0.316,0.765,0.58,1.547,0.879,2.619h0.018c-0.044-0.598-0.088-1.239-0.123-1.872s-0.062-1.266-0.062-1.854V116.552z"/>
				<path d="M381.664,123.144v-6.592h1.23v6.592H381.664z"/>
				<path d="M386.612,118.556c0.009-0.589-0.044-1.169-0.721-1.169c-0.413,0-0.677,0.167-0.677,0.615
					c0,0.501,0.316,0.694,0.703,0.94c0.404,0.255,1.151,0.747,1.494,1.081c0.422,0.413,0.554,0.809,0.554,1.38
					c0,1.248-0.826,1.898-2.03,1.898c-1.477,0-2.004-0.826-2.004-2.004v-0.483h1.23v0.387c-0.026,0.642,0.167,1.107,0.773,1.107
					c0.519,0,0.765-0.272,0.765-0.773c0-0.387-0.176-0.65-0.492-0.87c-0.642-0.501-1.441-0.861-1.942-1.521
					c-0.202-0.299-0.316-0.659-0.316-1.011c0-1.125,0.633-1.74,1.934-1.74c1.96,0,1.907,1.512,1.916,2.162H386.612z"/>
				<path d="M388.985,123.144v-6.592h1.23v2.61h1.723v-2.61h1.23v6.592h-1.23v-3.015h-1.723v3.015H388.985z"/>
				<path d="M394.32,123.144v-6.592h3.463v0.967h-2.232v1.661h2.057v0.967h-2.057v2.03h2.232v0.967H394.32z"/>
				<path d="M398.785,123.144v-6.592h2.566c0.299,0,0.896,0.132,1.274,0.747c0.281,0.457,0.36,1.187,0.36,2.276
					c0,1.301,0,2.804-1.011,3.393c-0.272,0.158-0.606,0.176-0.914,0.176H398.785z M400.552,122.177c1.099,0,1.169-0.58,1.169-2.487
					c0-1.556-0.158-2.171-0.896-2.171h-0.809v4.658H400.552z"/>
				<path d="M361.36,133.691v-6.592h1.986c0.527,0,1.046,0.035,1.397,0.483c0.281,0.36,0.325,0.738,0.325,1.187
					c0,0.571-0.123,1.134-0.791,1.38v0.018c0.694,0.097,0.958,0.677,0.958,1.529c0,0.272-0.018,0.545-0.088,0.809
					c-0.264,0.835-0.738,1.187-1.617,1.187H361.36z M362.819,129.762c0.299,0,0.686,0.018,0.879-0.229
					c0.114-0.167,0.132-0.396,0.132-0.712c0-0.492-0.105-0.738-0.668-0.756h-0.571v1.696H362.819z M362.854,132.724
					c0.255,0,0.519,0.026,0.738-0.07c0.334-0.149,0.378-0.58,0.378-0.914c0-0.712-0.141-1.011-0.905-1.011h-0.475v1.995H362.854z"/>
				<path d="M365.755,133.691l1.573-6.592h1.661l1.494,6.592h-1.318l-0.325-1.67h-1.441l-0.325,1.67H365.755z M367.592,131.054
					h1.055l-0.334-1.872c-0.062-0.308-0.088-0.606-0.123-0.914c-0.009-0.149-0.026-0.299-0.044-0.439h-0.018
					c-0.018,0.141-0.035,0.29-0.044,0.439c-0.035,0.308-0.062,0.606-0.123,0.914L367.592,131.054z"/>
				<path d="M373.674,129.103c0.009-0.589-0.044-1.169-0.721-1.169c-0.413,0-0.677,0.167-0.677,0.615
					c0,0.501,0.316,0.694,0.703,0.94c0.404,0.255,1.151,0.747,1.494,1.081c0.422,0.413,0.554,0.809,0.554,1.38
					c0,1.248-0.826,1.898-2.03,1.898c-1.477,0-2.004-0.826-2.004-2.004v-0.483h1.23v0.387c-0.026,0.642,0.167,1.107,0.773,1.107
					c0.519,0,0.765-0.272,0.765-0.773c0-0.387-0.176-0.65-0.492-0.87c-0.642-0.501-1.441-0.861-1.942-1.521
					c-0.202-0.299-0.316-0.659-0.316-1.011c0-1.125,0.633-1.74,1.934-1.74c1.96,0,1.907,1.512,1.916,2.162H373.674z"/>
				<path d="M376.013,133.691v-6.592h3.463v0.967h-2.232v1.661h2.057v0.967h-2.057v2.03h2.232v0.967H376.013z"/>
				<path d="M381.664,133.691h-1.23v-6.592h1.96l0.659,3.059c0.105,0.501,0.176,1.011,0.229,1.521h0.018
					c0.062-0.65,0.105-1.09,0.193-1.521l0.659-3.059h1.951v6.592h-1.23v-2.074c0-1.31,0.026-2.619,0.105-3.929h-0.018l-1.318,6.003
					h-0.747l-1.292-6.003h-0.044c0.079,1.31,0.105,2.619,0.105,3.929V133.691z"/>
				<path d="M387.245,133.691v-6.592h3.463v0.967h-2.232v1.661h2.057v0.967h-2.057v2.03h2.232v0.967H387.245z"/>
				<path d="M394.619,127.099h1.23v6.592h-1.283l-0.958-2.347c-0.325-0.782-0.589-1.582-0.879-2.619h-0.018
					c0.044,0.545,0.097,1.213,0.132,1.881c0.035,0.659,0.062,1.318,0.062,1.846v1.239h-1.23v-6.592h1.274l0.958,2.399
					c0.316,0.765,0.58,1.547,0.879,2.619h0.018c-0.044-0.598-0.088-1.239-0.123-1.872s-0.062-1.266-0.062-1.854V127.099z"/>
				<path d="M396.597,127.099h4.104v0.967h-1.433v5.625h-1.23v-5.625h-1.441V127.099z"/>
			</g>
		</g>
	</g>
	<g id="TEXT_22_">
		<g>
			<g>
				<path d="M157.767,288.141c0.04-1.259,0.139-2.195,1.615-2.195s1.575,0.936,1.615,2.195v0.705c0,1.318-0.099,2.281-1.615,2.281
					s-1.615-0.962-1.615-2.281V288.141z M158.716,289.307c0,0.409,0.033,1.075,0.666,1.075c0.659,0,0.666-0.679,0.666-1.154v-1.266
					c0-0.396,0.02-1.272-0.666-1.272c-0.725,0-0.666,0.863-0.666,1.246V289.307z"/>
				<path d="M161.841,291.008v-4.944h1.885c0.883,0,1.154,0.712,1.154,1.404c0,0.422-0.112,0.896-0.462,1.174
					c-0.29,0.23-0.679,0.303-1.035,0.296h-0.62v2.07H161.841z M162.764,288.213h0.494c0.402,0,0.673-0.171,0.673-0.771
					c0-0.566-0.225-0.652-0.745-0.652h-0.422V288.213z"/>
				<path d="M165.17,286.064h3.078v0.725h-1.074v4.219h-0.923v-4.219h-1.081V286.064z"/>
				<path d="M169.02,291.008v-0.87h0.87v0.87H169.02z"/>
				<path d="M173.324,288.002c0.191-0.013,0.402,0.007,0.58-0.072c0.25-0.119,0.283-0.363,0.283-0.606
					c0-0.376-0.139-0.554-0.441-0.554c-0.191,0-0.429,0.072-0.442,0.389v0.35h-0.864c-0.053-0.917,0.356-1.464,1.299-1.464
					c0.93,0,1.345,0.488,1.345,1.272c0,0.429-0.165,0.949-0.646,1.021v0.014c0.435,0.053,0.758,0.441,0.745,1.199
					c0,0.969-0.422,1.556-1.437,1.556c-1.279,0-1.378-0.936-1.365-1.45v-0.29h0.864c0.02,0.409-0.066,1.016,0.521,1.016
					c0.508,0,0.494-0.475,0.494-0.937c0-0.151-0.006-0.402-0.105-0.521c-0.171-0.204-0.573-0.198-0.83-0.198V288.002z"/>
				<path d="M177.589,291.008v-4.944h1.885c0.883,0,1.154,0.712,1.154,1.404c0,0.422-0.112,0.896-0.462,1.174
					c-0.29,0.23-0.679,0.303-1.035,0.296h-0.62v2.07H177.589z M178.512,288.213h0.494c0.402,0,0.673-0.171,0.673-0.771
					c0-0.566-0.225-0.652-0.745-0.652h-0.422V288.213z"/>
				<path d="M184.181,289.248c-0.007,0.092-0.013,0.191-0.02,0.283c-0.046,0.903-0.35,1.595-1.378,1.595
					c-1.516,0-1.615-0.962-1.615-2.281v-0.705c0.04-1.259,0.139-2.195,1.615-2.195c0.824,0.013,1.285,0.435,1.352,1.279
					c0.013,0.125,0.026,0.25,0.02,0.375h-0.91c-0.04-0.316-0.006-0.909-0.461-0.909c-0.725,0-0.666,0.863-0.666,1.246v1.371
					c0,0.409,0.033,1.075,0.666,1.075c0.508,0,0.448-0.817,0.468-1.134H184.181z"/>
				<path d="M185.137,291.008v-0.87h0.87v0.87H185.137z"/>
				<path d="M159.277,296.789v2.129h-0.923v-4.944h1.747c0.798,0,1.404,0.277,1.404,1.187c0,0.541-0.139,1.107-0.758,1.193v0.013
					c0.547,0.073,0.712,0.422,0.712,0.896c0,0.205-0.026,1.417,0.197,1.562v0.092h-1.015c-0.112-0.316-0.093-0.923-0.099-1.252
					c-0.006-0.303,0-0.719-0.316-0.811c-0.25-0.073-0.521-0.066-0.785-0.066H159.277z M159.277,296.064h0.725
					c0.303-0.02,0.541-0.218,0.541-0.712c0-0.554-0.231-0.646-0.58-0.653h-0.686V296.064z"/>
				<path d="M162.349,296.051c0.04-1.259,0.139-2.195,1.615-2.195s1.575,0.936,1.615,2.195v0.706c0,1.318-0.099,2.281-1.615,2.281
					s-1.615-0.962-1.615-2.281V296.051z M163.298,297.218c0,0.409,0.033,1.074,0.666,1.074c0.659,0,0.666-0.679,0.666-1.153v-1.266
					c0-0.396,0.02-1.272-0.666-1.272c-0.725,0-0.666,0.864-0.666,1.246V297.218z"/>
				<path d="M168.637,293.975h0.923v3.447c0,1.095-0.356,1.615-1.562,1.615c-1.22,0-1.576-0.521-1.576-1.615v-3.447h0.923v3.368
					c0,0.475,0.033,0.949,0.659,0.949c0.6,0,0.633-0.475,0.633-0.949V293.975z"/>
				<path d="M170.364,296.051c0.04-1.259,0.139-2.195,1.615-2.195c0.791,0.006,1.338,0.211,1.549,1.068
					c0.046,0.198,0.04,0.402,0.046,0.6h-0.923c-0.013-0.501-0.046-0.896-0.672-0.923c-0.725,0-0.666,0.864-0.666,1.246v1.371
					c0,0.409,0.033,1.074,0.666,1.074c0.527,0,0.699-0.56,0.679-1.305h-0.639v-0.726h1.536v2.657h-0.692v-0.567h-0.013
					c-0.185,0.514-0.534,0.659-0.87,0.686c-1.516,0-1.615-0.962-1.615-2.281V296.051z"/>
				<path d="M174.478,298.918v-4.944h0.923v1.958h1.292v-1.958h0.923v4.944h-0.923v-2.261h-1.292v2.261H174.478z"/>
				<path d="M178.374,297.237v-0.758h1.569v0.758H178.374z"/>
				<path d="M180.707,298.918v-4.944h0.923v4.944H180.707z"/>
				<path d="M184.741,293.975h0.923v4.944h-0.962l-0.719-1.76c-0.244-0.586-0.441-1.187-0.659-1.964h-0.013
					c0.033,0.408,0.073,0.909,0.099,1.41c0.026,0.495,0.046,0.989,0.046,1.385v0.929h-0.923v-4.944h0.956l0.718,1.8
					c0.237,0.573,0.435,1.16,0.659,1.964h0.013c-0.033-0.448-0.066-0.929-0.092-1.404s-0.046-0.949-0.046-1.391V293.975z"/>
				<path d="M150.417,301.766c-0.396,0.778-0.626,1.542-0.626,3.329c0,1.207,0.138,1.945,0.639,3.039h-0.547
					c-0.705-1.2-0.962-1.898-0.962-3.309c0-1.147,0.284-2.129,0.962-3.059H150.417z"/>
				<path d="M151.175,303.961c0.04-1.259,0.139-2.195,1.615-2.195s1.575,0.936,1.615,2.195v0.706c0,1.318-0.099,2.281-1.615,2.281
					s-1.615-0.962-1.615-2.281V303.961z M152.124,305.128c0,0.409,0.033,1.074,0.666,1.074c0.659,0,0.666-0.679,0.666-1.153v-1.266
					c0-0.396,0.02-1.272-0.666-1.272c-0.725,0-0.666,0.864-0.666,1.246V305.128z"/>
				<path d="M155.249,306.829v-4.944h1.885c0.883,0,1.153,0.712,1.153,1.404c0,0.422-0.112,0.896-0.461,1.173
					c-0.29,0.231-0.679,0.304-1.035,0.297h-0.62v2.07H155.249z M156.171,304.034h0.495c0.402,0,0.672-0.171,0.672-0.771
					c0-0.567-0.224-0.653-0.745-0.653h-0.422V304.034z"/>
				<path d="M158.578,301.885h3.078v0.725h-1.074v4.219h-0.923v-4.219h-1.081V301.885z"/>
				<path d="M162.428,306.829v-0.87h0.87v0.87H162.428z"/>
				<path d="M166.086,306.829v-4.944h2.617v0.725h-1.694v1.252h1.588v0.725h-1.588v2.241H166.086z"/>
				<path d="M169.355,306.829v-4.944h0.923v4.944H169.355z"/>
				<path d="M173.39,301.885h0.923v4.944h-0.962l-0.719-1.76c-0.244-0.586-0.441-1.187-0.659-1.964h-0.013
					c0.033,0.408,0.073,0.909,0.099,1.41c0.026,0.495,0.046,0.989,0.046,1.385v0.929h-0.923v-4.944h0.956l0.718,1.8
					c0.237,0.573,0.435,1.16,0.659,1.964h0.013c-0.033-0.448-0.066-0.929-0.092-1.404s-0.046-0.949-0.046-1.391V301.885z"/>
				<path d="M175.427,306.829v-0.87h0.87v0.87H175.427z"/>
				<path d="M179.032,306.829v-4.944h1.49c0.396,0,0.784,0.026,1.048,0.362c0.211,0.271,0.244,0.554,0.244,0.89
					c0,0.428-0.093,0.85-0.594,1.035v0.014c0.521,0.072,0.719,0.507,0.719,1.146c0,0.205-0.013,0.409-0.066,0.606
					c-0.198,0.626-0.554,0.89-1.213,0.89H179.032z M180.127,303.882c0.224,0,0.514,0.014,0.659-0.171
					c0.085-0.125,0.099-0.297,0.099-0.534c0-0.369-0.079-0.554-0.501-0.567h-0.429v1.272H180.127z M180.153,306.104
					c0.191,0,0.389,0.02,0.554-0.053c0.25-0.112,0.283-0.435,0.283-0.686c0-0.534-0.105-0.758-0.679-0.758h-0.356v1.496H180.153z"/>
				<path d="M182.328,306.829l1.18-4.944h1.246l1.121,4.944h-0.989l-0.244-1.252h-1.081l-0.244,1.252H182.328z M183.706,304.851
					h0.791l-0.25-1.404c-0.046-0.231-0.066-0.455-0.092-0.686c-0.007-0.112-0.02-0.225-0.033-0.33h-0.013
					c-0.014,0.105-0.026,0.218-0.033,0.33c-0.026,0.23-0.046,0.455-0.092,0.686L183.706,304.851z"/>
				<path d="M186.047,301.885h3.078v0.725h-1.074v4.219h-0.923v-4.219h-1.081V301.885z"/>
				<path d="M189.679,306.829v-4.944h0.923v1.958h1.292v-1.958h0.923v4.944h-0.923v-2.261h-1.292v2.261H189.679z"/>
				<path d="M193.614,308.134c0.396-0.778,0.626-1.542,0.626-3.329c0-1.206-0.138-1.944-0.639-3.039h0.547
					c0.705,1.2,0.962,1.898,0.962,3.309c0,1.147-0.283,2.129-0.962,3.059H193.614z"/>
			</g>
		</g>
	</g>
	<g>
		<g>
			<rect x="372.619" y="458.77" class="st3" width="48.929" height="8.191"/>
			<rect x="383.314" y="466.962" class="st3" width="27.31" height="7.448"/>
		</g>
		<g id="MTEXT_8_">
			<g>
				<g>
					<path d="M374.473,464.874v-4.944h0.923v4.219h1.714v0.726H374.473z"/>
					<path d="M377.723,462.007c0.039-1.259,0.138-2.195,1.614-2.195s1.576,0.937,1.615,2.195v0.705c0,1.318-0.099,2.28-1.615,2.28
						c-1.516,0-1.614-0.962-1.614-2.28V462.007z M378.672,463.174c0,0.408,0.032,1.074,0.665,1.074c0.66,0,0.666-0.68,0.666-1.154
						v-1.266c0-0.395,0.02-1.271-0.666-1.271c-0.725,0-0.665,0.863-0.665,1.246V463.174z"/>
					<path d="M384.974,462.488c0.092,0.494,0.138,1.127,0.204,1.76h0.013c0.014-0.119,0.02-0.237,0.033-0.356
						c0.033-0.422,0.072-0.844,0.139-1.266l0.369-2.696h0.955l-0.916,4.944h-1.107l-0.369-1.951
						c-0.099-0.521-0.132-1.048-0.197-1.575h-0.014c-0.065,0.527-0.099,1.055-0.197,1.575l-0.33,1.951h-1.107l-0.942-4.944h0.956
						l0.415,2.696c0.065,0.422,0.105,0.844,0.139,1.266c0.013,0.119,0.02,0.237,0.026,0.356h0.013
						c0.073-0.633,0.119-1.266,0.211-1.76l0.448-2.559h0.765L384.974,462.488z"/>
					<path d="M388.936,464.874v-4.944h0.923v1.958h1.292v-1.958h0.923v4.944h-0.923v-2.261h-1.292v2.261H388.936z"/>
					<path d="M392.937,464.874v-4.944h2.598v0.726h-1.675v1.246h1.542v0.725h-1.542v1.522h1.675v0.726H392.937z"/>
					<path d="M395.87,464.874l1.18-4.944h1.246l1.12,4.944h-0.988l-0.244-1.253h-1.081l-0.244,1.253H395.87z M397.247,462.896h0.791
						l-0.25-1.404c-0.046-0.23-0.066-0.455-0.092-0.686c-0.007-0.111-0.021-0.224-0.033-0.329h-0.014
						c-0.013,0.105-0.026,0.218-0.033,0.329c-0.025,0.23-0.046,0.455-0.092,0.686L397.247,462.896z"/>
					<path d="M399.951,464.874v-4.944h1.925c0.225,0,0.672,0.1,0.956,0.561c0.211,0.343,0.271,0.891,0.271,1.707
						c0,0.977,0,2.104-0.759,2.545c-0.204,0.119-0.454,0.132-0.686,0.132H399.951z M401.276,464.148
						c0.824,0,0.877-0.435,0.877-1.865c0-1.166-0.119-1.628-0.673-1.628h-0.606v3.493H401.276z"/>
					<path d="M404.862,462.745v2.129h-0.924v-4.944h1.747c0.798,0,1.404,0.277,1.404,1.188c0,0.54-0.139,1.107-0.758,1.192v0.014
						c0.547,0.072,0.712,0.422,0.712,0.896c0,0.204-0.026,1.417,0.197,1.562v0.093h-1.015c-0.112-0.316-0.093-0.923-0.099-1.253
						c-0.007-0.303,0-0.718-0.316-0.811c-0.251-0.072-0.521-0.065-0.785-0.065H404.862z M404.862,462.02h0.725
						c0.303-0.02,0.541-0.217,0.541-0.712c0-0.554-0.231-0.646-0.58-0.652h-0.686V462.02z"/>
					<path d="M407.934,462.007c0.039-1.259,0.138-2.195,1.614-2.195s1.576,0.937,1.615,2.195v0.705c0,1.318-0.099,2.28-1.615,2.28
						c-1.516,0-1.614-0.962-1.614-2.28V462.007z M408.883,463.174c0,0.408,0.032,1.074,0.665,1.074c0.66,0,0.666-0.68,0.666-1.154
						v-1.266c0-0.395,0.02-1.271-0.666-1.271c-0.725,0-0.665,0.863-0.665,1.246V463.174z"/>
					<path d="M411.962,462.007c0.039-1.259,0.139-2.195,1.615-2.195s1.575,0.937,1.614,2.195v0.705c0,1.318-0.099,2.28-1.614,2.28
						c-1.517,0-1.615-0.962-1.615-2.28V462.007z M412.911,463.174c0,0.408,0.033,1.074,0.666,1.074c0.658,0,0.665-0.68,0.665-1.154
						v-1.266c0-0.395,0.021-1.271-0.665-1.271c-0.726,0-0.666,0.863-0.666,1.246V463.174z"/>
					<path d="M416.951,464.874h-0.923v-4.944h1.471l0.494,2.295c0.079,0.375,0.132,0.758,0.171,1.14h0.014
						c0.046-0.487,0.079-0.817,0.145-1.14l0.495-2.295h1.463v4.944h-0.923v-1.556c0-0.982,0.02-1.965,0.079-2.946h-0.014
						l-0.988,4.502h-0.561l-0.969-4.502h-0.033c0.06,0.981,0.079,1.964,0.079,2.946V464.874z"/>
					<path d="M384.826,472.785v-4.944h0.923v4.944H384.826z"/>
					<path d="M386.686,472.785v-4.944h2.616v0.726h-1.693v1.252h1.588v0.725h-1.588v2.242H386.686z"/>
					<path d="M392.505,470.655v2.13h-0.922v-4.944h1.746c0.798,0,1.404,0.276,1.404,1.187c0,0.541-0.139,1.107-0.758,1.193v0.013
						c0.547,0.073,0.712,0.422,0.712,0.896c0,0.204-0.026,1.417,0.197,1.562v0.093h-1.015c-0.112-0.316-0.093-0.924-0.1-1.253
						c-0.006-0.304,0-0.719-0.316-0.811c-0.25-0.073-0.521-0.066-0.784-0.066H392.505z M392.505,469.931h0.726
						c0.304-0.021,0.54-0.218,0.54-0.712c0-0.554-0.23-0.646-0.58-0.652h-0.686V469.931z"/>
					<path d="M395.598,472.785v-4.944h2.597v0.726h-1.674v1.245h1.543v0.726h-1.543v1.522h1.674v0.726H395.598z"/>
					<path d="M401.873,473.253l-0.515-0.501c-0.224,0.111-0.487,0.151-0.869,0.151c-1.517,0-1.615-0.962-1.615-2.28v-0.706
						c0.039-1.259,0.139-2.194,1.615-2.194s1.575,0.936,1.614,2.194v0.706c0,0.633-0.032,1.305-0.271,1.688l0.508,0.507
						L401.873,473.253z M401.049,471.532l0.046,0.046c0.033-0.151,0.053-0.336,0.053-0.494l0.007-1.371
						c0-0.383,0.06-1.246-0.665-1.246c-0.726,0-0.666,0.863-0.666,1.246v1.371c0,0.408,0.033,1.074,0.666,1.074
						c0.092,0,0.171-0.013,0.236-0.033l-0.178-0.171L401.049,471.532z"/>
					<path d="M402.935,469.699v-1.786h0.784v1.786H402.935z"/>
					<path d="M404.622,472.785v-4.944h1.925c0.224,0,0.673,0.099,0.956,0.561c0.211,0.343,0.27,0.89,0.27,1.707
						c0,0.976,0,2.103-0.758,2.544c-0.204,0.119-0.455,0.133-0.686,0.133H404.622z M405.947,472.06c0.823,0,0.876-0.435,0.876-1.865
						c0-1.167-0.118-1.628-0.672-1.628h-0.606v3.493H405.947z"/>
					<path d="M408.841,472.785v-0.871h0.87v0.871H408.841z"/>
				</g>
			</g>
		</g>
	</g>
	<g id="TEXT_23_">
		<g>
			<g>
				<path d="M158.178,123.144v-6.592h3.489v0.967h-2.259v1.67h2.118v0.967h-2.118v2.988H158.178z"/>
				<path d="M162.537,123.144v-6.592h1.23v6.592H162.537z"/>
				<path d="M167.916,116.552h1.23v6.592h-1.283l-0.958-2.347c-0.325-0.782-0.589-1.582-0.879-2.619h-0.018
					c0.044,0.545,0.097,1.213,0.132,1.881c0.035,0.659,0.062,1.318,0.062,1.846v1.239h-1.23v-6.592h1.274l0.958,2.399
					c0.316,0.765,0.58,1.547,0.879,2.619h0.018c-0.044-0.598-0.088-1.239-0.123-1.872s-0.062-1.266-0.062-1.854V116.552z"/>
				<path d="M170.351,123.144v-6.592h1.23v6.592H170.351z"/>
				<path d="M175.299,118.556c0.009-0.589-0.044-1.169-0.721-1.169c-0.413,0-0.677,0.167-0.677,0.615
					c0,0.501,0.316,0.694,0.703,0.94c0.404,0.255,1.151,0.747,1.494,1.081c0.422,0.413,0.554,0.809,0.554,1.38
					c0,1.248-0.826,1.898-2.03,1.898c-1.477,0-2.004-0.826-2.004-2.004v-0.483h1.23v0.387c-0.026,0.642,0.167,1.107,0.773,1.107
					c0.519,0,0.765-0.272,0.765-0.773c0-0.387-0.176-0.65-0.492-0.87c-0.642-0.501-1.441-0.861-1.942-1.521
					c-0.202-0.299-0.316-0.659-0.316-1.011c0-1.125,0.633-1.74,1.934-1.74c1.96,0,1.907,1.512,1.916,2.162H175.299z"/>
				<path d="M177.672,123.144v-6.592h1.23v2.61h1.723v-2.61h1.23v6.592h-1.23v-3.015h-1.723v3.015H177.672z"/>
				<path d="M183.007,123.144v-6.592h3.463v0.967h-2.232v1.661h2.057v0.967h-2.057v2.03h2.232v0.967H183.007z"/>
				<path d="M187.473,123.144v-6.592h2.566c0.299,0,0.896,0.132,1.274,0.747c0.281,0.457,0.36,1.187,0.36,2.276
					c0,1.301,0,2.804-1.011,3.393c-0.272,0.158-0.606,0.176-0.914,0.176H187.473z M189.239,122.177c1.099,0,1.169-0.58,1.169-2.487
					c0-1.556-0.158-2.171-0.896-2.171h-0.809v4.658H189.239z"/>
				<path d="M196.218,120.305v2.839h-1.23v-6.592h2.329c1.063,0,1.872,0.369,1.872,1.582c0,0.721-0.185,1.477-1.011,1.591v0.018
					c0.729,0.097,0.949,0.562,0.949,1.195c0,0.272-0.035,1.89,0.264,2.083v0.123h-1.354c-0.149-0.422-0.123-1.23-0.132-1.67
					c-0.009-0.404,0-0.958-0.422-1.081c-0.334-0.097-0.694-0.088-1.046-0.088H196.218z M196.218,119.338h0.967
					c0.404-0.026,0.721-0.29,0.721-0.949c0-0.738-0.308-0.861-0.773-0.87h-0.914V119.338z"/>
				<path d="M200.34,123.144v-6.592h3.463v0.967h-2.232v1.661h2.057v0.967h-2.057v2.03h2.232v0.967H200.34z"/>
				<path d="M208.672,120.797c-0.009,0.123-0.018,0.255-0.026,0.378c-0.062,1.204-0.466,2.127-1.837,2.127
					c-2.021,0-2.153-1.283-2.153-3.041v-0.94c0.053-1.679,0.185-2.927,2.153-2.927c1.099,0.018,1.714,0.58,1.802,1.705
					c0.018,0.167,0.035,0.334,0.026,0.501h-1.213c-0.053-0.422-0.009-1.213-0.615-1.213c-0.967,0-0.888,1.151-0.888,1.661v1.828
					c0,0.545,0.044,1.433,0.888,1.433c0.677,0,0.598-1.09,0.624-1.512H208.672z"/>
				<path d="M209.947,123.144v-1.16h1.16v1.16H209.947z"/>
				<path d="M215.994,120.305v2.839h-1.23v-6.592h2.329c1.063,0,1.872,0.369,1.872,1.582c0,0.721-0.185,1.477-1.011,1.591v0.018
					c0.729,0.097,0.949,0.562,0.949,1.195c0,0.272-0.035,1.89,0.264,2.083v0.123h-1.354c-0.149-0.422-0.123-1.23-0.132-1.67
					c-0.009-0.404,0-0.958-0.422-1.081c-0.334-0.097-0.694-0.088-1.046-0.088H215.994z M215.994,119.338h0.967
					c0.404-0.026,0.721-0.29,0.721-0.949c0-0.738-0.308-0.861-0.773-0.87h-0.914V119.338z"/>
				<path d="M220.09,119.32c0.053-1.679,0.185-2.927,2.153-2.927s2.101,1.248,2.153,2.927v0.94c0,1.758-0.132,3.041-2.153,3.041
					s-2.153-1.283-2.153-3.041V119.32z M221.355,120.876c0,0.545,0.044,1.433,0.888,1.433c0.879,0,0.888-0.905,0.888-1.538v-1.688
					c0-0.527,0.026-1.696-0.888-1.696c-0.967,0-0.888,1.151-0.888,1.661V120.876z"/>
				<path d="M225.46,119.32c0.053-1.679,0.185-2.927,2.153-2.927s2.101,1.248,2.153,2.927v0.94c0,1.758-0.132,3.041-2.153,3.041
					s-2.153-1.283-2.153-3.041V119.32z M226.726,120.876c0,0.545,0.044,1.433,0.888,1.433c0.879,0,0.888-0.905,0.888-1.538v-1.688
					c0-0.527,0.026-1.696-0.888-1.696c-0.967,0-0.888,1.151-0.888,1.661V120.876z"/>
				<path d="M232.113,123.144h-1.23v-6.592h1.96l0.659,3.059c0.105,0.501,0.176,1.011,0.229,1.521h0.018
					c0.062-0.65,0.105-1.09,0.193-1.521l0.659-3.059h1.951v6.592h-1.23v-2.074c0-1.31,0.026-2.619,0.105-3.929h-0.018l-1.318,6.003
					h-0.747l-1.292-6.003h-0.044c0.079,1.31,0.105,2.619,0.105,3.929V123.144z"/>
				<path d="M166.866,129.121h-1.485v-0.879c0.853-0.009,1.564-0.237,1.811-1.143h0.905v6.592h-1.23V129.121z"/>
				<path d="M169.775,130.659l0.167-3.454h3.173v0.967h-2.224l-0.079,1.406c0.299-0.29,0.545-0.369,0.958-0.369
					c1.441,0,1.644,1.23,1.644,2.276c0,1.494-0.431,2.338-1.819,2.338c-1.494,0-1.89-0.686-1.881-2.206h1.151
					c0.018,0.475-0.053,1.204,0.615,1.239c0.729,0.044,0.686-0.729,0.703-1.38c0.044-1.055-0.255-1.301-0.703-1.301
					c-0.308,0-0.58,0.202-0.615,0.483H169.775z"/>
				<path d="M174.363,129.578v-2.382h1.046v2.382H174.363z"/>
				<path d="M176.402,128.962c0-1.397,0.668-1.89,1.784-1.89c1.107,0,1.775,0.492,1.775,1.89v2.962c0,1.397-0.668,1.898-1.784,1.898
					c-1.107,0-1.775-0.501-1.775-1.898V128.962z M177.633,131.924c-0.035,0.738,0.22,0.932,0.536,0.932
					c0.325,0,0.598-0.193,0.562-0.932v-2.962c0.035-0.729-0.237-0.923-0.562-0.923c-0.316,0-0.571,0.193-0.536,0.923V131.924z"/>
				<path d="M180.516,129.578v-2.382h1.046v2.382H180.516z M182.124,129.578v-2.382h1.046v2.382H182.124z"/>
				<path d="M183.434,128.734h1.345l0.378,0.896c0.044,0.149,0.097,0.299,0.123,0.448h0.018c0.035-0.158,0.088-0.308,0.141-0.466
					l0.404-0.879h1.266l-1.239,2.399l1.266,2.558h-1.283l-0.343-0.8c-0.105-0.237-0.193-0.475-0.229-0.729h-0.018
					c-0.044,0.281-0.141,0.536-0.255,0.791l-0.325,0.738h-1.31l1.31-2.531L183.434,128.734z"/>
				<path d="M189.076,129.121h-1.485v-0.879c0.853-0.009,1.564-0.237,1.811-1.143h0.905v6.592h-1.23V129.121z"/>
				<path d="M191.88,127.205h3.709v0.888c-0.58,1.028-0.958,2.101-1.23,3.19c-0.202,0.782-0.352,1.6-0.387,2.408h-1.266
					c0.097-1.389,0.536-2.733,1.046-4.025c0.141-0.352,0.457-1.046,0.756-1.494h-2.628V127.205z"/>
				<path d="M196.574,129.578v-2.382h1.046v2.382H196.574z"/>
				<path d="M198.613,128.962c0-1.397,0.668-1.89,1.784-1.89c1.107,0,1.775,0.492,1.775,1.89v2.962c0,1.397-0.668,1.898-1.784,1.898
					c-1.107,0-1.775-0.501-1.775-1.898V128.962z M199.843,131.924c-0.035,0.738,0.22,0.932,0.536,0.932
					c0.325,0,0.598-0.193,0.562-0.932v-2.962c0.035-0.729-0.237-0.923-0.562-0.923c-0.316,0-0.571,0.193-0.536,0.923V131.924z"/>
				<path d="M202.726,129.578v-2.382h1.046v2.382H202.726z M204.334,129.578v-2.382h1.046v2.382H204.334z"/>
				<path d="M207.964,126.941c-0.527,1.037-0.835,2.057-0.835,4.438c0,1.608,0.185,2.593,0.853,4.052h-0.729
					c-0.94-1.6-1.283-2.531-1.283-4.412c0-1.529,0.378-2.839,1.283-4.078H207.964z"/>
				<path d="M210.311,129.121h-1.485v-0.879c0.853-0.009,1.564-0.237,1.811-1.143h0.905v6.592h-1.23V129.121z"/>
				<path d="M213.203,129.736c0-2.101,0.606-2.663,1.907-2.663c0.967,0,1.661,0.439,1.626,1.485h-1.143
					c-0.009-0.22-0.026-0.554-0.527-0.519c-0.694,0.053-0.633,0.835-0.65,1.23v0.422c0.202-0.211,0.396-0.439,0.967-0.439
					c1.046,0,1.485,0.712,1.485,2.065c0,1.652-0.396,2.505-1.819,2.505c-1.468,0-1.863-0.958-1.846-2.505V129.736z M215.066,132.856
					c0.642-0.009,0.571-0.606,0.571-1.45c0-0.475,0.062-1.187-0.598-1.187c-0.606,0-0.606,0.642-0.606,1.187
					C214.425,132.223,214.407,132.917,215.066,132.856z"/>
				<path d="M217.809,129.578v-2.382h1.046v2.382H217.809z"/>
				<path d="M219.848,128.962c0-1.397,0.668-1.89,1.784-1.89c1.107,0,1.775,0.492,1.775,1.89v2.962c0,1.397-0.668,1.898-1.784,1.898
					c-1.107,0-1.775-0.501-1.775-1.898V128.962z M221.078,131.924c-0.035,0.738,0.22,0.932,0.536,0.932
					c0.325,0,0.598-0.193,0.562-0.932v-2.962c0.035-0.729-0.237-0.923-0.562-0.923c-0.316,0-0.571,0.193-0.536,0.923V131.924z"/>
				<path d="M223.961,129.578v-2.382h1.046v2.382H223.961z M225.569,129.578v-2.382h1.046v2.382H225.569z"/>
				<path d="M227.222,135.431c0.527-1.037,0.835-2.057,0.835-4.438c0-1.608-0.185-2.593-0.853-4.052h0.729
					c0.94,1.6,1.283,2.531,1.283,4.412c0,1.529-0.378,2.839-1.283,4.078H227.222z"/>
			</g>
		</g>
	</g>
	<g id="TEXT_24_">
		<g>
			<g>
				<path d="M360.799,86.7c0.039-1.259,0.138-2.195,1.614-2.195s1.576,0.936,1.615,2.195v0.705c0,1.318-0.099,2.281-1.615,2.281
					c-1.516,0-1.614-0.962-1.614-2.281V86.7z M361.748,87.867c0,0.409,0.032,1.075,0.665,1.075c0.66,0,0.666-0.679,0.666-1.154
					v-1.266c0-0.396,0.02-1.272-0.666-1.272c-0.725,0-0.665,0.863-0.665,1.246V87.867z"/>
				<path d="M364.872,89.567v-4.944h1.885c0.884,0,1.154,0.712,1.154,1.404c0,0.422-0.112,0.896-0.462,1.174
					c-0.29,0.23-0.679,0.303-1.034,0.296h-0.62v2.07H364.872z M365.795,86.772h0.494c0.402,0,0.673-0.171,0.673-0.771
					c0-0.566-0.225-0.652-0.745-0.652h-0.422V86.772z"/>
				<path d="M368.201,84.624h3.078v0.725h-1.074v4.219h-0.923v-4.219h-1.081V84.624z"/>
				<path d="M372.052,89.567v-0.87h0.87v0.87H372.052z"/>
				<path d="M375.71,89.567v-4.944h2.617v0.725h-1.694v1.252h1.589v0.725h-1.589v2.241H375.71z"/>
				<path d="M378.979,89.567v-4.944h0.923v4.944H378.979z"/>
				<path d="M383.014,84.624h0.923v4.944h-0.962l-0.719-1.76c-0.244-0.587-0.441-1.187-0.659-1.965h-0.014
					c0.033,0.409,0.073,0.91,0.1,1.411c0.026,0.494,0.046,0.988,0.046,1.384v0.93h-0.923v-4.944h0.956l0.718,1.799
					c0.238,0.574,0.436,1.16,0.66,1.965h0.013c-0.033-0.448-0.065-0.93-0.093-1.404c-0.025-0.475-0.046-0.949-0.046-1.391V84.624z"
					/>
				<path d="M384.84,89.567v-4.944h0.923v4.944H384.84z"/>
				<path d="M388.552,86.126c0.006-0.442-0.033-0.876-0.541-0.876c-0.31,0-0.508,0.125-0.508,0.461c0,0.376,0.237,0.521,0.527,0.706
					c0.304,0.191,0.863,0.56,1.121,0.811c0.316,0.31,0.415,0.606,0.415,1.035c0,0.936-0.62,1.424-1.522,1.424
					c-1.107,0-1.503-0.62-1.503-1.503V87.82h0.923v0.29c-0.02,0.481,0.125,0.831,0.58,0.831c0.389,0,0.573-0.205,0.573-0.58
					c0-0.29-0.132-0.488-0.369-0.653c-0.481-0.375-1.081-0.646-1.457-1.14c-0.151-0.225-0.237-0.495-0.237-0.758
					c0-0.844,0.475-1.305,1.45-1.305c1.47,0,1.431,1.134,1.438,1.622H388.552z"/>
				<path d="M390.331,89.567v-4.944h0.923v1.958h1.292v-1.958h0.923v4.944h-0.923v-2.261h-1.292v2.261H390.331z"/>
				<path d="M394.332,89.567v-4.944h2.597v0.725h-1.674v1.246h1.543v0.725h-1.543v1.523h1.674v0.725H394.332z"/>
				<path d="M397.681,89.567v-4.944h1.925c0.224,0,0.673,0.099,0.956,0.56c0.211,0.343,0.27,0.89,0.27,1.708
					c0,0.976,0,2.103-0.758,2.544c-0.204,0.119-0.455,0.132-0.686,0.132H397.681z M399.006,88.842c0.823,0,0.876-0.435,0.876-1.866
					c0-1.167-0.118-1.628-0.672-1.628h-0.606v3.494H399.006z"/>
				<path d="M363.679,95.349v2.129h-0.922v-4.944h1.746c0.798,0,1.404,0.277,1.404,1.187c0,0.541-0.139,1.107-0.758,1.193v0.013
					c0.547,0.073,0.712,0.422,0.712,0.896c0,0.205-0.026,1.417,0.197,1.562v0.092h-1.015c-0.112-0.316-0.093-0.923-0.1-1.252
					c-0.006-0.303,0-0.719-0.316-0.811c-0.25-0.073-0.521-0.066-0.784-0.066H363.679z M363.679,94.624h0.726
					c0.304-0.02,0.54-0.218,0.54-0.712c0-0.554-0.23-0.646-0.58-0.653h-0.686V94.624z"/>
				<path d="M366.771,97.478v-4.944h2.598v0.725h-1.675v1.246h1.542v0.726h-1.542v1.522h1.675v0.725H366.771z"/>
				<path d="M373.02,95.718c-0.007,0.093-0.013,0.191-0.02,0.284c-0.046,0.903-0.35,1.595-1.378,1.595
					c-1.516,0-1.615-0.962-1.615-2.281V94.61c0.04-1.259,0.139-2.195,1.615-2.195c0.824,0.013,1.285,0.435,1.352,1.279
					c0.013,0.125,0.026,0.25,0.02,0.376h-0.91c-0.039-0.316-0.006-0.91-0.461-0.91c-0.725,0-0.666,0.864-0.666,1.246v1.371
					c0,0.409,0.033,1.074,0.666,1.074c0.508,0,0.448-0.817,0.468-1.134H373.02z"/>
				<path d="M373.977,97.478v-0.87h0.87v0.87H373.977z"/>
				<path d="M378.511,95.349v2.129h-0.922v-4.944h1.746c0.798,0,1.404,0.277,1.404,1.187c0,0.541-0.139,1.107-0.758,1.193v0.013
					c0.547,0.073,0.712,0.422,0.712,0.896c0,0.205-0.026,1.417,0.197,1.562v0.092h-1.015c-0.112-0.316-0.093-0.923-0.1-1.252
					c-0.006-0.303,0-0.719-0.316-0.811c-0.25-0.073-0.521-0.066-0.784-0.066H378.511z M378.511,94.624h0.726
					c0.304-0.02,0.54-0.218,0.54-0.712c0-0.554-0.23-0.646-0.58-0.653h-0.686V94.624z"/>
				<path d="M381.583,94.61c0.039-1.259,0.139-2.195,1.615-2.195s1.575,0.936,1.614,2.195v0.706c0,1.318-0.099,2.281-1.614,2.281
					c-1.517,0-1.615-0.962-1.615-2.281V94.61z M382.532,95.777c0,0.409,0.033,1.074,0.666,1.074c0.658,0,0.665-0.679,0.665-1.153
					v-1.266c0-0.396,0.021-1.272-0.665-1.272c-0.726,0-0.666,0.864-0.666,1.246V95.777z"/>
				<path d="M385.611,94.61c0.039-1.259,0.138-2.195,1.614-2.195s1.576,0.936,1.615,2.195v0.706c0,1.318-0.099,2.281-1.615,2.281
					c-1.516,0-1.614-0.962-1.614-2.281V94.61z M386.561,95.777c0,0.409,0.032,1.074,0.665,1.074c0.66,0,0.666-0.679,0.666-1.153
					v-1.266c0-0.396,0.02-1.272-0.666-1.272c-0.725,0-0.665,0.864-0.665,1.246V95.777z"/>
				<path d="M390.601,97.478h-0.923v-4.944h1.47l0.495,2.294c0.079,0.376,0.132,0.758,0.171,1.141h0.014
					c0.046-0.488,0.079-0.817,0.145-1.141l0.494-2.294h1.464v4.944h-0.923v-1.556c0-0.982,0.02-1.964,0.079-2.947h-0.013
					l-0.989,4.502h-0.561l-0.969-4.502h-0.033c0.06,0.982,0.079,1.965,0.079,2.947V97.478z"/>
				<path d="M396.224,97.478c0.007-0.211,0.033-0.554,0.079-0.837c0.06-0.343,0.304-0.791,0.87-1.391l0.448-0.475
					c0.297-0.323,0.455-0.481,0.455-0.949c0-0.448-0.179-0.587-0.442-0.587c-0.19,0-0.362,0.06-0.428,0.244
					c-0.093,0.218-0.066,0.468-0.072,0.699h-0.864v-0.138c0-0.436-0.02-1.543,1.404-1.529c0.778,0.006,1.325,0.487,1.325,1.278
					c0,0.547-0.205,0.963-0.587,1.352l-0.726,0.751c-0.19,0.198-0.475,0.521-0.48,0.857h1.721v0.725H396.224z"/>
				<path d="M365.377,101.96h-1.114v-0.659c0.64-0.006,1.174-0.178,1.357-0.857h0.68v4.944h-0.923V101.96z"/>
				<path d="M368.673,101.96h-1.114v-0.659c0.64-0.006,1.173-0.178,1.358-0.857h0.679v4.944h-0.923V101.96z"/>
				<path d="M370.999,102.303v-1.787h0.785v1.787H370.999z"/>
				<path d="M373.617,101.96h-1.114v-0.659c0.64-0.006,1.174-0.178,1.357-0.857h0.68v4.944h-0.923V101.96z"/>
				<path d="M375.825,101.842c0-1.048,0.501-1.417,1.338-1.417c0.831,0,1.332,0.369,1.332,1.417v2.222
					c0,1.048-0.501,1.424-1.338,1.424c-0.831,0-1.332-0.376-1.332-1.424V101.842z M376.748,104.063
					c-0.026,0.554,0.165,0.698,0.402,0.698c0.243,0,0.448-0.145,0.422-0.698v-2.222c0.026-0.547-0.179-0.692-0.422-0.692
					c-0.237,0-0.429,0.146-0.402,0.692V104.063z"/>
				<path d="M378.91,102.303v-1.787h0.784v1.787H378.91z M380.116,102.303v-1.787h0.785v1.787H380.116z"/>
				<path d="M381.099,101.67h1.009l0.283,0.672c0.033,0.112,0.073,0.224,0.093,0.336h0.013c0.026-0.118,0.066-0.23,0.105-0.349
					l0.304-0.659h0.949l-0.93,1.799l0.949,1.918h-0.963l-0.257-0.6c-0.079-0.178-0.145-0.355-0.171-0.547h-0.014
					c-0.033,0.211-0.105,0.402-0.191,0.593l-0.243,0.554h-0.982l0.982-1.898L381.099,101.67z"/>
				<path d="M385.331,101.96h-1.114v-0.659c0.64-0.006,1.173-0.178,1.358-0.857h0.679v4.944h-0.923V101.96z"/>
				<path d="M388.627,101.96h-1.114v-0.659c0.64-0.006,1.174-0.178,1.357-0.857h0.68v4.944h-0.923V101.96z"/>
				<path d="M390.954,102.303v-1.787h0.784v1.787H390.954z"/>
				<path d="M392.483,101.842c0-1.048,0.501-1.417,1.338-1.417c0.831,0,1.332,0.369,1.332,1.417v2.222
					c0,1.048-0.501,1.424-1.338,1.424c-0.831,0-1.332-0.376-1.332-1.424V101.842z M393.406,104.063
					c-0.026,0.554,0.165,0.698,0.402,0.698c0.243,0,0.448-0.145,0.422-0.698v-2.222c0.026-0.547-0.179-0.692-0.422-0.692
					c-0.237,0-0.429,0.146-0.402,0.692V104.063z"/>
				<path d="M395.568,102.303v-1.787h0.784v1.787H395.568z M396.774,102.303v-1.787h0.785v1.787H396.774z"/>
			</g>
		</g>
	</g>
	<g>
		<rect x="138.796" y="713.909" class="st3" width="71.629" height="22.067"/>
		<g>
			<path d="M140.389,719.791c0.053-1.679,0.185-2.927,2.153-2.927s2.101,1.248,2.153,2.927v0.94c0,1.758-0.132,3.041-2.153,3.041
				s-2.153-1.283-2.153-3.041V719.791z M141.655,721.347c0,0.545,0.044,1.433,0.888,1.433c0.879,0,0.888-0.905,0.888-1.538v-1.688
				c0-0.527,0.026-1.696-0.888-1.696c-0.967,0-0.888,1.151-0.888,1.661V721.347z"/>
			<path d="M145.821,723.614v-6.592h2.514c1.178,0,1.538,0.949,1.538,1.872c0,0.562-0.149,1.195-0.615,1.564
				c-0.387,0.308-0.905,0.404-1.38,0.396h-0.826v2.76H145.821z M147.051,719.888h0.659c0.536,0,0.896-0.229,0.896-1.028
				c0-0.756-0.299-0.87-0.993-0.87h-0.562V719.888z"/>
			<path d="M150.26,717.022h4.104v0.967h-1.433v5.625h-1.23v-5.625h-1.441V717.022z"/>
			<path d="M154.586,723.614v-1.16h1.16v1.16H154.586z"/>
			<path d="M163.322,721.268c-0.009,0.123-0.018,0.255-0.026,0.378c-0.062,1.204-0.466,2.127-1.837,2.127
				c-2.021,0-2.153-1.283-2.153-3.041v-0.94c0.053-1.679,0.185-2.927,2.153-2.927c1.099,0.018,1.714,0.58,1.802,1.705
				c0.018,0.167,0.035,0.334,0.026,0.501h-1.213c-0.053-0.422-0.009-1.213-0.615-1.213c-0.967,0-0.888,1.151-0.888,1.661v1.828
				c0,0.545,0.044,1.433,0.888,1.433c0.677,0,0.598-1.09,0.624-1.512H163.322z"/>
			<path d="M164.245,719.791c0.053-1.679,0.185-2.927,2.153-2.927s2.101,1.248,2.153,2.927v0.94c0,1.758-0.132,3.041-2.153,3.041
				s-2.153-1.283-2.153-3.041V719.791z M165.511,721.347c0,0.545,0.044,1.433,0.888,1.433c0.879,0,0.888-0.905,0.888-1.538v-1.688
				c0-0.527,0.026-1.696-0.888-1.696c-0.967,0-0.888,1.151-0.888,1.661V721.347z"/>
			<path d="M169.677,723.614v-6.592h1.23v5.625h2.285v0.967H169.677z"/>
			<path d="M174.107,723.614v-6.592h2.566c0.299,0,0.896,0.132,1.274,0.747c0.281,0.457,0.36,1.187,0.36,2.276
				c0,1.301,0,2.804-1.011,3.393c-0.272,0.158-0.606,0.176-0.914,0.176H174.107z M175.874,722.647c1.099,0,1.169-0.58,1.169-2.487
				c0-1.556-0.158-2.171-0.896-2.171h-0.809v4.658H175.874z"/>
			<path d="M185.542,721.268c-0.009,0.123-0.018,0.255-0.026,0.378c-0.062,1.204-0.466,2.127-1.837,2.127
				c-2.021,0-2.153-1.283-2.153-3.041v-0.94c0.053-1.679,0.185-2.927,2.153-2.927c1.099,0.018,1.714,0.58,1.802,1.705
				c0.018,0.167,0.035,0.334,0.026,0.501h-1.213c-0.053-0.422-0.009-1.213-0.615-1.213c-0.967,0-0.888,1.151-0.888,1.661v1.828
				c0,0.545,0.044,1.433,0.888,1.433c0.677,0,0.598-1.09,0.624-1.512H185.542z"/>
			<path d="M186.491,723.614v-6.592h3.463v0.967h-2.232v1.661h2.057v0.967h-2.057v2.03h2.232v0.967H186.491z"/>
			<path d="M190.921,723.614v-6.592h1.23v5.625h2.285v0.967H190.921z"/>
			<path d="M195.315,723.614v-6.592h1.23v5.625h2.285v0.967H195.315z"/>
			<path d="M199.191,723.614l1.573-6.592h1.661l1.494,6.592h-1.318l-0.325-1.67h-1.441l-0.325,1.67H199.191z M201.028,720.978h1.055
				l-0.334-1.872c-0.062-0.308-0.088-0.606-0.123-0.914c-0.009-0.149-0.026-0.299-0.044-0.439h-0.018
				c-0.018,0.141-0.035,0.29-0.044,0.439c-0.035,0.308-0.062,0.606-0.123,0.914L201.028,720.978z"/>
			<path d="M205.81,720.775v2.839h-1.23v-6.592h2.329c1.063,0,1.872,0.369,1.872,1.582c0,0.721-0.185,1.477-1.011,1.591v0.018
				c0.729,0.097,0.949,0.562,0.949,1.195c0,0.272-0.035,1.89,0.264,2.083v0.123h-1.354c-0.149-0.422-0.123-1.23-0.132-1.67
				c-0.009-0.404,0-0.958-0.422-1.081c-0.334-0.097-0.694-0.088-1.046-0.088H205.81z M205.81,719.809h0.967
				c0.404-0.026,0.721-0.29,0.721-0.949c0-0.738-0.308-0.861-0.773-0.87h-0.914V719.809z"/>
			<path d="M151.863,727.569h1.23v4.597c0,1.459-0.475,2.153-2.083,2.153c-1.626,0-2.101-0.694-2.101-2.153v-4.597h1.23v4.491
				c0,0.633,0.044,1.266,0.879,1.266c0.8,0,0.844-0.633,0.844-1.266V727.569z"/>
			<path d="M157.224,727.569h1.23v6.592h-1.283l-0.958-2.347c-0.325-0.782-0.589-1.582-0.879-2.619h-0.018
				c0.044,0.545,0.097,1.213,0.132,1.881c0.035,0.659,0.062,1.318,0.062,1.846v1.239h-1.23v-6.592h1.274l0.958,2.399
				c0.316,0.765,0.58,1.547,0.879,2.619h0.018c-0.044-0.598-0.088-1.239-0.123-1.872s-0.062-1.266-0.062-1.854V727.569z"/>
			<path d="M159.615,734.161v-6.592h3.463v0.967h-2.232v1.661h2.057v0.967h-2.057v2.03h2.232v0.967H159.615z"/>
			<path d="M168.237,734.161h-1.406l-0.703-1.608c-0.114-0.264-0.202-0.545-0.255-0.835h-0.018c-0.053,0.439-0.246,0.835-0.422,1.23
				l-0.545,1.213h-1.345l1.617-3.34l-1.556-3.252h1.38l0.668,1.494c0.114,0.272,0.229,0.527,0.237,0.826h0.026
				c0.035-0.431,0.237-0.817,0.404-1.204l0.475-1.116h1.389l-1.582,3.252L168.237,734.161z"/>
			<path d="M172.834,731.814c-0.009,0.123-0.018,0.255-0.026,0.378c-0.062,1.204-0.466,2.127-1.837,2.127
				c-2.021,0-2.153-1.283-2.153-3.041v-0.94c0.053-1.679,0.185-2.927,2.153-2.927c1.099,0.018,1.714,0.58,1.802,1.705
				c0.018,0.167,0.035,0.334,0.026,0.501h-1.213c-0.053-0.422-0.009-1.213-0.615-1.213c-0.967,0-0.888,1.151-0.888,1.661v1.828
				c0,0.545,0.044,1.433,0.888,1.433c0.677,0,0.598-1.09,0.624-1.512H172.834z"/>
			<path d="M173.3,734.161l1.573-6.592h1.661l1.494,6.592h-1.318l-0.325-1.67h-1.441l-0.325,1.67H173.3z M175.137,731.524h1.055
				l-0.334-1.872c-0.062-0.308-0.088-0.606-0.123-0.914c-0.009-0.149-0.026-0.299-0.044-0.439h-0.018
				c-0.018,0.141-0.035,0.29-0.044,0.439c-0.035,0.308-0.062,0.606-0.123,0.914L175.137,731.524z"/>
			<path d="M181.176,727.569h1.318l-1.424,6.592h-1.644l-1.459-6.592h1.318l0.773,4.228c0.07,0.369,0.114,0.747,0.149,1.125
				c0.018,0.176,0.053,0.36,0.053,0.545h0.018c0-0.185,0.035-0.369,0.053-0.545c0.035-0.378,0.079-0.756,0.149-1.125
				L181.176,727.569z"/>
			<path d="M182.426,734.161l1.573-6.592h1.661l1.494,6.592h-1.318l-0.325-1.67h-1.441l-0.325,1.67H182.426z M184.263,731.524h1.055
				l-0.334-1.872c-0.062-0.308-0.088-0.606-0.123-0.914c-0.009-0.149-0.026-0.299-0.044-0.439h-0.018
				c-0.018,0.141-0.035,0.29-0.044,0.439c-0.035,0.308-0.062,0.606-0.123,0.914L184.263,731.524z"/>
			<path d="M186.9,727.569h4.104v0.967h-1.433v5.625h-1.23v-5.625H186.9V727.569z"/>
			<path d="M191.708,734.161v-6.592h3.463v0.967h-2.232v1.661h2.057v0.967h-2.057v2.03h2.232v0.967H191.708z"/>
			<path d="M196.173,734.161v-6.592h2.566c0.299,0,0.896,0.132,1.274,0.747c0.281,0.457,0.36,1.187,0.36,2.276
				c0,1.301,0,2.804-1.011,3.393c-0.272,0.158-0.606,0.176-0.914,0.176H196.173z M197.939,733.194c1.099,0,1.169-0.58,1.169-2.487
				c0-1.556-0.158-2.171-0.896-2.171h-0.809v4.658H197.939z"/>
		</g>
	</g>
</g>
<g>
</g>
<g>
</g>
<g>
</g>
<g>
</g>
<g>
</g>
<g>
</g>
<g>
</g>
<g>
</g>
<g>
</g>
<g>
</g>
<g>
</g>
<g>
</g>
<g>
</g>
<g>
</g>
<g>
</g>
</svg>
